Counter_Main/simulation/modelsim/msim_transcript
# Reading pref.tcl
# do Counter_Main_run_msim_rtl_verilog.do
# if {[file exists rtl_work]} {
# 	vdel -lib rtl_work -all
# }
# vlib rtl_work
# vmap work rtl_work
# Model Technology ModelSim - Intel FPGA Edition vmap 2020.1 Lib Mapping Utility 2020.02 Feb 28 2020
# vmap work rtl_work 
# Copying C:/intelFPGA_lite/20.1/modelsim_ase/win32aloem/../modelsim.ini to modelsim.ini
# Modifying modelsim.ini
# 
# vlog -vlog01compat -work work +incdir+C:/Users/Jhury/Desktop/SCHOOL\ STUFF/CpE\ -\ 3rd\ Year/HDL/FINAL\ PROJ/HDL-Final/Counter_Main {C:/Users/Jhury/Desktop/SCHOOL STUFF/CpE - 3rd Year/HDL/FINAL PROJ/HDL-Final/Counter_Main/Counter_Main.v}
# Model Technology ModelSim - Intel FPGA Edition vlog 2020.1 Compiler 2020.02 Feb 28 2020
# Start time: 22:24:11 on Dec 22,2022
# vlog -reportprogress 300 -vlog01compat -work work "+incdir+C:/Users/Jhury/Desktop/SCHOOL STUFF/CpE - 3rd Year/HDL/FINAL PROJ/HDL-Final/Counter_Main" C:/Users/Jhury/Desktop/SCHOOL STUFF/CpE - 3rd Year/HDL/FINAL PROJ/HDL-Final/Counter_Main/Counter_Main.v 
# -- Compiling module Counter_Main
# 
# Top level modules:
# 	Counter_Main
# End time: 22:24:11 on Dec 22,2022, Elapsed time: 0:00:00
# Errors: 0, Warnings: 0
# vlog -vlog01compat -work work +incdir+C:/Users/Jhury/Desktop/SCHOOL\ STUFF/CpE\ -\ 3rd\ Year/HDL/FINAL\ PROJ/HDL-Final/Counter_Main {C:/Users/Jhury/Desktop/SCHOOL STUFF/CpE - 3rd Year/HDL/FINAL PROJ/HDL-Final/Counter_Main/ComplexCounter_4Bit.v}
# Model Technology ModelSim - Intel FPGA Edition vlog 2020.1 Compiler 2020.02 Feb 28 2020
# Start time: 22:24:11 on Dec 22,2022
# vlog -reportprogress 300 -vlog01compat -work work "+incdir+C:/Users/Jhury/Desktop/SCHOOL STUFF/CpE - 3rd Year/HDL/FINAL PROJ/HDL-Final/Counter_Main" C:/Users/Jhury/Desktop/SCHOOL STUFF/CpE - 3rd Year/HDL/FINAL PROJ/HDL-Final/Counter_Main/ComplexCounter_4Bit.v 
# -- Compiling module ComplexCounter_4Bit
# 
# Top level modules:
# 	ComplexCounter_4Bit
# End time: 22:24:11 on Dec 22,2022, Elapsed time: 0:00:00
# Errors: 0, Warnings: 0
# 
# vlog -vlog01compat -work work +incdir+C:/Users/Jhury/Desktop/SCHOOL\ STUFF/CpE\ -\ 3rd\ Year/HDL/FINAL\ PROJ/HDL-Final/Counter_Main {C:/Users/Jhury/Desktop/SCHOOL STUFF/CpE - 3rd Year/HDL/FINAL PROJ/HDL-Final/Counter_Main/tb_Counter_Main.v}
# Model Technology ModelSim - Intel FPGA Edition vlog 2020.1 Compiler 2020.02 Feb 28 2020
# Start time: 22:24:11 on Dec 22,2022
# vlog -reportprogress 300 -vlog01compat -work work "+incdir+C:/Users/Jhury/Desktop/SCHOOL STUFF/CpE - 3rd Year/HDL/FINAL PROJ/HDL-Final/Counter_Main" C:/Users/Jhury/Desktop/SCHOOL STUFF/CpE - 3rd Year/HDL/FINAL PROJ/HDL-Final/Counter_Main/tb_Counter_Main.v 
# -- Compiling module tb_Counter_Main
# 
# Top level modules:
# 	tb_Counter_Main
# End time: 22:24:11 on Dec 22,2022, Elapsed time: 0:00:00
# Errors: 0, Warnings: 0
# 
# vsim -t 1ps -L altera_ver -L lpm_ver -L sgate_ver -L altera_mf_ver -L altera_lnsim_ver -L fiftyfivenm_ver -L rtl_work -L work -voptargs="+acc"  tb_Counter_Main
# vsim -t 1ps -L altera_ver -L lpm_ver -L sgate_ver -L altera_mf_ver -L altera_lnsim_ver -L fiftyfivenm_ver -L rtl_work -L work -voptargs=""+acc"" tb_Counter_Main 
# Start time: 22:24:11 on Dec 22,2022
# Loading work.tb_Counter_Main
# Loading work.Counter_Main
# Loading work.ComplexCounter_4Bit
# 
# add wave *
# ** Warning: (vsim-WLF-5000) WLF file currently in use: vsim.wlf
#           File in use by: Thomas  Hostname: THOMAS-PC  ProcessID: 3468
#           Attempting to use alternate WLF file "./wlftfy4nfg".
# ** Warning: (vsim-WLF-5001) Could not open WLF file: vsim.wlf
#           Using alternate file: ./wlftfy4nfg
# view structure
# .main_pane.structure.interior.cs.body.struct
# view signals
# .main_pane.objects.interior.cs.body.tree
# run -all
# Starting simulation at                    0 ns...
# Time:   0 ns	 Clk = 0	 nReset = 0	 CounterEnable = x	 CounterInput = x	 Time = x:xx	 PT:x
# Time:   5 ns	 Clk = 1	 nReset = 0	 CounterEnable = x	 CounterInput = x	 Time = 0:00	 PT:0
# Time:  10 ns	 Clk = 0	 nReset = 1	 CounterEnable = 1	 CounterInput = 1	 Time = 0:00	 PT:0
# Time:  15 ns	 Clk = 1	 nReset = 1	 CounterEnable = 1	 CounterInput = 1	 Time = 9:51	 PT:2385
# Time:  20 ns	 Clk = 0	 nReset = 1	 CounterEnable = 1	 CounterInput = 1	 Time = 9:51	 PT:2385
# Time:  25 ns	 Clk = 1	 nReset = 1	 CounterEnable = 1	 CounterInput = 1	 Time = 8:51	 PT:2129
# Time:  30 ns	 Clk = 0	 nReset = 1	 CounterEnable = 1	 CounterInput = 1	 Time = 8:51	 PT:2129
# Time:  35 ns	 Clk = 1	 nReset = 1	 CounterEnable = 1	 CounterInput = 1	 Time = 7:51	 PT:1873
# Time:  40 ns	 Clk = 0	 nReset = 1	 CounterEnable = 1	 CounterInput = 1	 Time = 7:51	 PT:1873
# Time:  45 ns	 Clk = 1	 nReset = 1	 CounterEnable = 1	 CounterInput = 1	 Time = 6:51	 PT:1617
# Time:  50 ns	 Clk = 0	 nReset = 1	 CounterEnable = 1	 CounterInput = 1	 Time = 6:51	 PT:1617
# Time:  55 ns	 Clk = 1	 nReset = 1	 CounterEnable = 1	 CounterInput = 1	 Time = 5:51	 PT:1361
# Time:  60 ns	 Clk = 0	 nReset = 1	 CounterEnable = 1	 CounterInput = 1	 Time = 5:51	 PT:1361
# Time:  65 ns	 Clk = 1	 nReset = 1	 CounterEnable = 1	 CounterInput = 1	 Time = 4:51	 PT:1105
# Time:  70 ns	 Clk = 0	 nReset = 1	 CounterEnable = 1	 CounterInput = 1	 Time = 4:51	 PT:1105
# Time:  75 ns	 Clk = 1	 nReset = 1	 CounterEnable = 1	 CounterInput = 1	 Time = 3:51	 PT:849
# Time:  80 ns	 Clk = 0	 nReset = 1	 CounterEnable = 1	 CounterInput = 1	 Time = 3:51	 PT:849
# Time:  85 ns	 Clk = 1	 nReset = 1	 CounterEnable = 1	 CounterInput = 1	 Time = 2:51	 PT:593
# Time:  90 ns	 Clk = 0	 nReset = 1	 CounterEnable = 1	 CounterInput = 1	 Time = 2:51	 PT:593
# Time:  95 ns	 Clk = 1	 nReset = 1	 CounterEnable = 1	 CounterInput = 1	 Time = 1:51	 PT:337
# Time: 100 ns	 Clk = 0	 nReset = 1	 CounterEnable = 1	 CounterInput = 1	 Time = 1:51	 PT:337
# Time: 105 ns	 Clk = 1	 nReset = 1	 CounterEnable = 1	 CounterInput = 1	 Time = 0:51	 PT:81
# Time: 110 ns	 Clk = 0	 nReset = 1	 CounterEnable = 1	 CounterInput = 1	 Time = 0:51	 PT:81
# Time: 115 ns	 Clk = 1	 nReset = 1	 CounterEnable = 1	 CounterInput = 1	 Time = 9:41	 PT:2369
# Time: 120 ns	 Clk = 0	 nReset = 1	 CounterEnable = 1	 CounterInput = 1	 Time = 9:41	 PT:2369
# Time: 125 ns	 Clk = 1	 nReset = 1	 CounterEnable = 1	 CounterInput = 1	 Time = 8:41	 PT:2113
# Time: 130 ns	 Clk = 0	 nReset = 1	 CounterEnable = 1	 CounterInput = 1	 Time = 8:41	 PT:2113
# Time: 135 ns	 Clk = 1	 nReset = 1	 CounterEnable = 1	 CounterInput = 1	 Time = 7:41	 PT:1857
# Time: 140 ns	 Clk = 0	 nReset = 1	 CounterEnable = 1	 CounterInput = 1	 Time = 7:41	 PT:1857
# Time: 145 ns	 Clk = 1	 nReset = 1	 CounterEnable = 1	 CounterInput = 1	 Time = 6:41	 PT:1601
# Time: 150 ns	 Clk = 0	 nReset = 1	 CounterEnable = 1	 CounterInput = 1	 Time = 6:41	 PT:1601
# Time: 155 ns	 Clk = 1	 nReset = 1	 CounterEnable = 1	 CounterInput = 1	 Time = 5:41	 PT:1345
# Time: 160 ns	 Clk = 0	 nReset = 1	 CounterEnable = 1	 CounterInput = 1	 Time = 5:41	 PT:1345
# Time: 165 ns	 Clk = 1	 nReset = 1	 CounterEnable = 1	 CounterInput = 1	 Time = 4:41	 PT:1089
# Time: 170 ns	 Clk = 0	 nReset = 1	 CounterEnable = 1	 CounterInput = 1	 Time = 4:41	 PT:1089
# Time: 175 ns	 Clk = 1	 nReset = 1	 CounterEnable = 1	 CounterInput = 1	 Time = 3:41	 PT:833
# Time: 180 ns	 Clk = 0	 nReset = 1	 CounterEnable = 1	 CounterInput = 1	 Time = 3:41	 PT:833
# Time: 185 ns	 Clk = 1	 nReset = 1	 CounterEnable = 1	 CounterInput = 1	 Time = 2:41	 PT:577
# Time: 190 ns	 Clk = 0	 nReset = 1	 CounterEnable = 1	 CounterInput = 1	 Time = 2:41	 PT:577
# Time: 195 ns	 Clk = 1	 nReset = 1	 CounterEnable = 1	 CounterInput = 1	 Time = 1:41	 PT:321
# Time: 200 ns	 Clk = 0	 nReset = 1	 CounterEnable = 1	 CounterInput = 1	 Time = 1:41	 PT:321
# Time: 205 ns	 Clk = 1	 nReset = 1	 CounterEnable = 1	 CounterInput = 1	 Time = 0:41	 PT:65
# Time: 210 ns	 Clk = 0	 nReset = 1	 CounterEnable = 1	 CounterInput = 1	 Time = 0:41	 PT:65
# Time: 215 ns	 Clk = 1	 nReset = 1	 CounterEnable = 1	 CounterInput = 1	 Time = 9:31	 PT:2353
# Time: 220 ns	 Clk = 0	 nReset = 1	 CounterEnable = 1	 CounterInput = 1	 Time = 9:31	 PT:2353
# Time: 225 ns	 Clk = 1	 nReset = 1	 CounterEnable = 1	 CounterInput = 1	 Time = 8:31	 PT:2097
# Time: 230 ns	 Clk = 0	 nReset = 1	 CounterEnable = 1	 CounterInput = 1	 Time = 8:31	 PT:2097
# Time: 235 ns	 Clk = 1	 nReset = 1	 CounterEnable = 1	 CounterInput = 1	 Time = 7:31	 PT:1841
# Time: 240 ns	 Clk = 0	 nReset = 1	 CounterEnable = 1	 CounterInput = 1	 Time = 7:31	 PT:1841
# Time: 245 ns	 Clk = 1	 nReset = 1	 CounterEnable = 1	 CounterInput = 1	 Time = 6:31	 PT:1585
# Time: 250 ns	 Clk = 0	 nReset = 1	 CounterEnable = 1	 CounterInput = 1	 Time = 6:31	 PT:1585
# Time: 255 ns	 Clk = 1	 nReset = 1	 CounterEnable = 1	 CounterInput = 1	 Time = 5:31	 PT:1329
# Time: 260 ns	 Clk = 0	 nReset = 1	 CounterEnable = 1	 CounterInput = 1	 Time = 5:31	 PT:1329
# Time: 265 ns	 Clk = 1	 nReset = 1	 CounterEnable = 1	 CounterInput = 1	 Time = 4:31	 PT:1073
# Time: 270 ns	 Clk = 0	 nReset = 1	 CounterEnable = 1	 CounterInput = 1	 Time = 4:31	 PT:1073
# Time: 275 ns	 Clk = 1	 nReset = 1	 CounterEnable = 1	 CounterInput = 1	 Time = 3:31	 PT:817
# Time: 280 ns	 Clk = 0	 nReset = 1	 CounterEnable = 1	 CounterInput = 1	 Time = 3:31	 PT:817
# Time: 285 ns	 Clk = 1	 nReset = 1	 CounterEnable = 1	 CounterInput = 1	 Time = 2:31	 PT:561
# Time: 290 ns	 Clk = 0	 nReset = 1	 CounterEnable = 1	 CounterInput = 1	 Time = 2:31	 PT:561
# Time: 295 ns	 Clk = 1	 nReset = 1	 CounterEnable = 1	 CounterInput = 1	 Time = 1:31	 PT:305
# Time: 300 ns	 Clk = 0	 nReset = 1	 CounterEnable = 1	 CounterInput = 1	 Time = 1:31	 PT:305
# Time: 305 ns	 Clk = 1	 nReset = 1	 CounterEnable = 1	 CounterInput = 1	 Time = 0:31	 PT:49
# Time: 310 ns	 Clk = 0	 nReset = 1	 CounterEnable = 1	 CounterInput = 1	 Time = 0:31	 PT:49
# Time: 315 ns	 Clk = 1	 nReset = 1	 CounterEnable = 1	 CounterInput = 1	 Time = 9:21	 PT:2337
# Time: 320 ns	 Clk = 0	 nReset = 1	 CounterEnable = 1	 CounterInput = 1	 Time = 9:21	 PT:2337
# Time: 325 ns	 Clk = 1	 nReset = 1	 CounterEnable = 1	 CounterInput = 1	 Time = 8:21	 PT:2081
# Time: 330 ns	 Clk = 0	 nReset = 1	 CounterEnable = 1	 CounterInput = 1	 Time = 8:21	 PT:2081
# Time: 335 ns	 Clk = 1	 nReset = 1	 CounterEnable = 1	 CounterInput = 1	 Time = 7:21	 PT:1825
# Time: 340 ns	 Clk = 0	 nReset = 1	 CounterEnable = 1	 CounterInput = 1	 Time = 7:21	 PT:1825
# Time: 345 ns	 Clk = 1	 nReset = 1	 CounterEnable = 1	 CounterInput = 1	 Time = 6:21	 PT:1569
# Time: 350 ns	 Clk = 0	 nReset = 1	 CounterEnable = 1	 CounterInput = 1	 Time = 6:21	 PT:1569
# Time: 355 ns	 Clk = 1	 nReset = 1	 CounterEnable = 1	 CounterInput = 1	 Time = 5:21	 PT:1313
# Time: 360 ns	 Clk = 0	 nReset = 1	 CounterEnable = 1	 CounterInput = 1	 Time = 5:21	 PT:1313
# Time: 365 ns	 Clk = 1	 nReset = 1	 CounterEnable = 1	 CounterInput = 1	 Time = 4:21	 PT:1057
# Time: 370 ns	 Clk = 0	 nReset = 1	 CounterEnable = 1	 CounterInput = 1	 Time = 4:21	 PT:1057
# Time: 375 ns	 Clk = 1	 nReset = 1	 CounterEnable = 1	 CounterInput = 1	 Time = 3:21	 PT:801
# Time: 380 ns	 Clk = 0	 nReset = 1	 CounterEnable = 1	 CounterInput = 1	 Time = 3:21	 PT:801
# Time: 385 ns	 Clk = 1	 nReset = 1	 CounterEnable = 1	 CounterInput = 1	 Time = 2:21	 PT:545
# Time: 390 ns	 Clk = 0	 nReset = 1	 CounterEnable = 1	 CounterInput = 1	 Time = 2:21	 PT:545
# Time: 395 ns	 Clk = 1	 nReset = 1	 CounterEnable = 1	 CounterInput = 1	 Time = 1:21	 PT:289
# Time: 400 ns	 Clk = 0	 nReset = 1	 CounterEnable = 1	 CounterInput = 1	 Time = 1:21	 PT:289
# Time: 405 ns	 Clk = 1	 nReset = 1	 CounterEnable = 1	 CounterInput = 1	 Time = 0:21	 PT:33
# Time: 410 ns	 Clk = 0	 nReset = 1	 CounterEnable = 1	 CounterInput = 1	 Time = 0:21	 PT:33
# Time: 415 ns	 Clk = 1	 nReset = 1	 CounterEnable = 1	 CounterInput = 1	 Time = 9:11	 PT:2321
# Time: 420 ns	 Clk = 0	 nReset = 1	 CounterEnable = 1	 CounterInput = 1	 Time = 9:11	 PT:2321
# Time: 425 ns	 Clk = 1	 nReset = 1	 CounterEnable = 1	 CounterInput = 1	 Time = 8:11	 PT:2065
# Time: 430 ns	 Clk = 0	 nReset = 1	 CounterEnable = 1	 CounterInput = 1	 Time = 8:11	 PT:2065
# Time: 435 ns	 Clk = 1	 nReset = 1	 CounterEnable = 1	 CounterInput = 1	 Time = 7:11	 PT:1809
# Time: 440 ns	 Clk = 0	 nReset = 1	 CounterEnable = 1	 CounterInput = 1	 Time = 7:11	 PT:1809
# Time: 445 ns	 Clk = 1	 nReset = 1	 CounterEnable = 1	 CounterInput = 1	 Time = 6:11	 PT:1553
# Time: 450 ns	 Clk = 0	 nReset = 1	 CounterEnable = 1	 CounterInput = 1	 Time = 6:11	 PT:1553
# Time: 455 ns	 Clk = 1	 nReset = 1	 CounterEnable = 1	 CounterInput = 1	 Time = 5:11	 PT:1297
# Time: 460 ns	 Clk = 0	 nReset = 1	 CounterEnable = 1	 CounterInput = 1	 Time = 5:11	 PT:1297
# Time: 465 ns	 Clk = 1	 nReset = 1	 CounterEnable = 1	 CounterInput = 1	 Time = 4:11	 PT:1041
# Time: 470 ns	 Clk = 0	 nReset = 1	 CounterEnable = 1	 CounterInput = 1	 Time = 4:11	 PT:1041
# Time: 475 ns	 Clk = 1	 nReset = 1	 CounterEnable = 1	 CounterInput = 1	 Time = 3:11	 PT:785
# Time: 480 ns	 Clk = 0	 nReset = 1	 CounterEnable = 1	 CounterInput = 1	 Time = 3:11	 PT:785
# Time: 485 ns	 Clk = 1	 nReset = 1	 CounterEnable = 1	 CounterInput = 1	 Time = 2:11	 PT:529
# Time: 490 ns	 Clk = 0	 nReset = 1	 CounterEnable = 1	 CounterInput = 1	 Time = 2:11	 PT:529
# Time: 495 ns	 Clk = 1	 nReset = 1	 CounterEnable = 1	 CounterInput = 1	 Time = 1:11	 PT:273
# Time: 500 ns	 Clk = 0	 nReset = 1	 CounterEnable = 1	 CounterInput = 1	 Time = 1:11	 PT:273
# Time: 505 ns	 Clk = 1	 nReset = 1	 CounterEnable = 1	 CounterInput = 1	 Time = 0:11	 PT:17
# Time: 510 ns	 Clk = 0	 nReset = 1	 CounterEnable = 1	 CounterInput = 1	 Time = 0:11	 PT:17
# Time: 515 ns	 Clk = 1	 nReset = 1	 CounterEnable = 1	 CounterInput = 1	 Time = 9:01	 PT:2305
# Time: 520 ns	 Clk = 0	 nReset = 1	 CounterEnable = 1	 CounterInput = 1	 Time = 9:01	 PT:2305
# Time: 525 ns	 Clk = 1	 nReset = 1	 CounterEnable = 1	 CounterInput = 1	 Time = 8:01	 PT:2049
# Time: 530 ns	 Clk = 0	 nReset = 1	 CounterEnable = 1	 CounterInput = 1	 Time = 8:01	 PT:2049
# Time: 535 ns	 Clk = 1	 nReset = 1	 CounterEnable = 1	 CounterInput = 1	 Time = 7:01	 PT:1793
# Time: 540 ns	 Clk = 0	 nReset = 1	 CounterEnable = 1	 CounterInput = 1	 Time = 7:01	 PT:1793
# Time: 545 ns	 Clk = 1	 nReset = 1	 CounterEnable = 1	 CounterInput = 1	 Time = 6:01	 PT:1537
# Time: 550 ns	 Clk = 0	 nReset = 1	 CounterEnable = 1	 CounterInput = 1	 Time = 6:01	 PT:1537
# Time: 555 ns	 Clk = 1	 nReset = 1	 CounterEnable = 1	 CounterInput = 1	 Time = 5:01	 PT:1281
# Time: 560 ns	 Clk = 0	 nReset = 1	 CounterEnable = 1	 CounterInput = 1	 Time = 5:01	 PT:1281
# Time: 565 ns	 Clk = 1	 nReset = 1	 CounterEnable = 1	 CounterInput = 1	 Time = 4:01	 PT:1025
# Time: 570 ns	 Clk = 0	 nReset = 1	 CounterEnable = 1	 CounterInput = 1	 Time = 4:01	 PT:1025
# Time: 575 ns	 Clk = 1	 nReset = 1	 CounterEnable = 1	 CounterInput = 1	 Time = 3:01	 PT:769
# Time: 580 ns	 Clk = 0	 nReset = 1	 CounterEnable = 1	 CounterInput = 1	 Time = 3:01	 PT:769
# Time: 585 ns	 Clk = 1	 nReset = 1	 CounterEnable = 1	 CounterInput = 1	 Time = 2:01	 PT:513
# Time: 590 ns	 Clk = 0	 nReset = 1	 CounterEnable = 1	 CounterInput = 1	 Time = 2:01	 PT:513
# Time: 595 ns	 Clk = 1	 nReset = 1	 CounterEnable = 1	 CounterInput = 1	 Time = 1:01	 PT:257
# Time: 600 ns	 Clk = 0	 nReset = 1	 CounterEnable = 1	 CounterInput = 1	 Time = 1:01	 PT:257
# Time: 605 ns	 Clk = 1	 nReset = 1	 CounterEnable = 1	 CounterInput = 1	 Time = 0:01	 PT:1
# Time: 610 ns	 Clk = 0	 nReset = 1	 CounterEnable = 1	 CounterInput = 1	 Time = 0:01	 PT:1
# Time: 615 ns	 Clk = 1	 nReset = 1	 CounterEnable = 1	 CounterInput = 1	 Time = 9:50	 PT:2384
# Time: 620 ns	 Clk = 0	 nReset = 1	 CounterEnable = 1	 CounterInput = 1	 Time = 9:50	 PT:2384
# Time: 625 ns	 Clk = 1	 nReset = 1	 CounterEnable = 1	 CounterInput = 1	 Time = 8:50	 PT:2128
# Time: 630 ns	 Clk = 0	 nReset = 1	 CounterEnable = 1	 CounterInput = 1	 Time = 8:50	 PT:2128
# Time: 635 ns	 Clk = 1	 nReset = 1	 CounterEnable = 1	 CounterInput = 1	 Time = 7:50	 PT:1872
# Time: 640 ns	 Clk = 0	 nReset = 1	 CounterEnable = 1	 CounterInput = 1	 Time = 7:50	 PT:1872
# Time: 645 ns	 Clk = 1	 nReset = 1	 CounterEnable = 1	 CounterInput = 1	 Time = 6:50	 PT:1616
# Time: 650 ns	 Clk = 0	 nReset = 1	 CounterEnable = 1	 CounterInput = 1	 Time = 6:50	 PT:1616
# Time: 655 ns	 Clk = 1	 nReset = 1	 CounterEnable = 1	 CounterInput = 1	 Time = 5:50	 PT:1360
# Time: 660 ns	 Clk = 0	 nReset = 1	 CounterEnable = 1	 CounterInput = 1	 Time = 5:50	 PT:1360
# Time: 665 ns	 Clk = 1	 nReset = 1	 CounterEnable = 1	 CounterInput = 1	 Time = 4:50	 PT:1104
# Time: 670 ns	 Clk = 0	 nReset = 1	 CounterEnable = 1	 CounterInput = 1	 Time = 4:50	 PT:1104
# Time: 675 ns	 Clk = 1	 nReset = 1	 CounterEnable = 1	 CounterInput = 1	 Time = 3:50	 PT:848
# Time: 680 ns	 Clk = 0	 nReset = 1	 CounterEnable = 1	 CounterInput = 1	 Time = 3:50	 PT:848
# Time: 685 ns	 Clk = 1	 nReset = 1	 CounterEnable = 1	 CounterInput = 1	 Time = 2:50	 PT:592
# Time: 690 ns	 Clk = 0	 nReset = 1	 CounterEnable = 1	 CounterInput = 1	 Time = 2:50	 PT:592
# Time: 695 ns	 Clk = 1	 nReset = 1	 CounterEnable = 1	 CounterInput = 1	 Time = 1:50	 PT:336
# Time: 700 ns	 Clk = 0	 nReset = 1	 CounterEnable = 1	 CounterInput = 1	 Time = 1:50	 PT:336
# Time: 705 ns	 Clk = 1	 nReset = 1	 CounterEnable = 1	 CounterInput = 1	 Time = 0:50	 PT:80
# Time: 710 ns	 Clk = 0	 nReset = 1	 CounterEnable = 1	 CounterInput = 1	 Time = 0:50	 PT:80
# Time: 715 ns	 Clk = 1	 nReset = 1	 CounterEnable = 1	 CounterInput = 1	 Time = 9:40	 PT:2368
# Time: 720 ns	 Clk = 0	 nReset = 1	 CounterEnable = 1	 CounterInput = 1	 Time = 9:40	 PT:2368
# Time: 725 ns	 Clk = 1	 nReset = 1	 CounterEnable = 1	 CounterInput = 1	 Time = 8:40	 PT:2112
# Time: 730 ns	 Clk = 0	 nReset = 1	 CounterEnable = 1	 CounterInput = 1	 Time = 8:40	 PT:2112
# Time: 735 ns	 Clk = 1	 nReset = 1	 CounterEnable = 1	 CounterInput = 1	 Time = 7:40	 PT:1856
# Time: 740 ns	 Clk = 0	 nReset = 1	 CounterEnable = 1	 CounterInput = 1	 Time = 7:40	 PT:1856
# Time: 745 ns	 Clk = 1	 nReset = 1	 CounterEnable = 1	 CounterInput = 1	 Time = 6:40	 PT:1600
# Time: 750 ns	 Clk = 0	 nReset = 1	 CounterEnable = 1	 CounterInput = 1	 Time = 6:40	 PT:1600
# Time: 755 ns	 Clk = 1	 nReset = 1	 CounterEnable = 1	 CounterInput = 1	 Time = 5:40	 PT:1344
# Time: 760 ns	 Clk = 0	 nReset = 1	 CounterEnable = 1	 CounterInput = 1	 Time = 5:40	 PT:1344
# Time: 765 ns	 Clk = 1	 nReset = 1	 CounterEnable = 1	 CounterInput = 1	 Time = 4:40	 PT:1088
# Time: 770 ns	 Clk = 0	 nReset = 1	 CounterEnable = 1	 CounterInput = 1	 Time = 4:40	 PT:1088
# Time: 775 ns	 Clk = 1	 nReset = 1	 CounterEnable = 1	 CounterInput = 1	 Time = 3:40	 PT:832
# Time: 780 ns	 Clk = 0	 nReset = 1	 CounterEnable = 1	 CounterInput = 1	 Time = 3:40	 PT:832
# Time: 785 ns	 Clk = 1	 nReset = 1	 CounterEnable = 1	 CounterInput = 1	 Time = 2:40	 PT:576
# Time: 790 ns	 Clk = 0	 nReset = 1	 CounterEnable = 1	 CounterInput = 1	 Time = 2:40	 PT:576
# Time: 795 ns	 Clk = 1	 nReset = 1	 CounterEnable = 1	 CounterInput = 1	 Time = 1:40	 PT:320
# Time: 800 ns	 Clk = 0	 nReset = 1	 CounterEnable = 1	 CounterInput = 1	 Time = 1:40	 PT:320
# Time: 805 ns	 Clk = 1	 nReset = 1	 CounterEnable = 1	 CounterInput = 1	 Time = 0:40	 PT:64
# Time: 810 ns	 Clk = 0	 nReset = 1	 CounterEnable = 1	 CounterInput = 1	 Time = 0:40	 PT:64
# Time: 815 ns	 Clk = 1	 nReset = 1	 CounterEnable = 1	 CounterInput = 1	 Time = 9:30	 PT:2352
# Time: 820 ns	 Clk = 0	 nReset = 1	 CounterEnable = 1	 CounterInput = 1	 Time = 9:30	 PT:2352
# Time: 825 ns	 Clk = 1	 nReset = 1	 CounterEnable = 1	 CounterInput = 1	 Time = 8:30	 PT:2096
# Time: 830 ns	 Clk = 0	 nReset = 1	 CounterEnable = 1	 CounterInput = 1	 Time = 8:30	 PT:2096
# Time: 835 ns	 Clk = 1	 nReset = 1	 CounterEnable = 1	 CounterInput = 1	 Time = 7:30	 PT:1840
# Time: 840 ns	 Clk = 0	 nReset = 1	 CounterEnable = 1	 CounterInput = 1	 Time = 7:30	 PT:1840
# Time: 845 ns	 Clk = 1	 nReset = 1	 CounterEnable = 1	 CounterInput = 1	 Time = 6:30	 PT:1584
# Time: 850 ns	 Clk = 0	 nReset = 1	 CounterEnable = 1	 CounterInput = 1	 Time = 6:30	 PT:1584
# Time: 855 ns	 Clk = 1	 nReset = 1	 CounterEnable = 1	 CounterInput = 1	 Time = 5:30	 PT:1328
# Time: 860 ns	 Clk = 0	 nReset = 1	 CounterEnable = 1	 CounterInput = 1	 Time = 5:30	 PT:1328
# Time: 865 ns	 Clk = 1	 nReset = 1	 CounterEnable = 1	 CounterInput = 1	 Time = 4:30	 PT:1072
# Time: 870 ns	 Clk = 0	 nReset = 1	 CounterEnable = 1	 CounterInput = 1	 Time = 4:30	 PT:1072
# Time: 875 ns	 Clk = 1	 nReset = 1	 CounterEnable = 1	 CounterInput = 1	 Time = 3:30	 PT:816
# Time: 880 ns	 Clk = 0	 nReset = 1	 CounterEnable = 1	 CounterInput = 1	 Time = 3:30	 PT:816
# Time: 885 ns	 Clk = 1	 nReset = 1	 CounterEnable = 1	 CounterInput = 1	 Time = 2:30	 PT:560
# Time: 890 ns	 Clk = 0	 nReset = 1	 CounterEnable = 1	 CounterInput = 1	 Time = 2:30	 PT:560
# Time: 895 ns	 Clk = 1	 nReset = 1	 CounterEnable = 1	 CounterInput = 1	 Time = 1:30	 PT:304
# Time: 900 ns	 Clk = 0	 nReset = 1	 CounterEnable = 1	 CounterInput = 1	 Time = 1:30	 PT:304
# Time: 905 ns	 Clk = 1	 nReset = 1	 CounterEnable = 1	 CounterInput = 1	 Time = 0:30	 PT:48
# Time: 910 ns	 Clk = 0	 nReset = 1	 CounterEnable = 1	 CounterInput = 1	 Time = 0:30	 PT:48
# Time: 915 ns	 Clk = 1	 nReset = 1	 CounterEnable = 1	 CounterInput = 1	 Time = 9:20	 PT:2336
# Time: 920 ns	 Clk = 0	 nReset = 1	 CounterEnable = 1	 CounterInput = 1	 Time = 9:20	 PT:2336
# Time: 925 ns	 Clk = 1	 nReset = 1	 CounterEnable = 1	 CounterInput = 1	 Time = 8:20	 PT:2080
# Time: 930 ns	 Clk = 0	 nReset = 1	 CounterEnable = 1	 CounterInput = 1	 Time = 8:20	 PT:2080
# Time: 935 ns	 Clk = 1	 nReset = 1	 CounterEnable = 1	 CounterInput = 1	 Time = 7:20	 PT:1824
# Time: 940 ns	 Clk = 0	 nReset = 1	 CounterEnable = 1	 CounterInput = 1	 Time = 7:20	 PT:1824
# Time: 945 ns	 Clk = 1	 nReset = 1	 CounterEnable = 1	 CounterInput = 1	 Time = 6:20	 PT:1568
# Time: 950 ns	 Clk = 0	 nReset = 1	 CounterEnable = 1	 CounterInput = 1	 Time = 6:20	 PT:1568
# Time: 955 ns	 Clk = 1	 nReset = 1	 CounterEnable = 1	 CounterInput = 1	 Time = 5:20	 PT:1312
# Time: 960 ns	 Clk = 0	 nReset = 1	 CounterEnable = 1	 CounterInput = 1	 Time = 5:20	 PT:1312
# Time: 965 ns	 Clk = 1	 nReset = 1	 CounterEnable = 1	 CounterInput = 1	 Time = 4:20	 PT:1056
# Time: 970 ns	 Clk = 0	 nReset = 1	 CounterEnable = 1	 CounterInput = 1	 Time = 4:20	 PT:1056
# Time: 975 ns	 Clk = 1	 nReset = 1	 CounterEnable = 1	 CounterInput = 1	 Time = 3:20	 PT:800
# Time: 980 ns	 Clk = 0	 nReset = 1	 CounterEnable = 1	 CounterInput = 1	 Time = 3:20	 PT:800
# Time: 985 ns	 Clk = 1	 nReset = 1	 CounterEnable = 1	 CounterInput = 1	 Time = 2:20	 PT:544
# Time: 990 ns	 Clk = 0	 nReset = 1	 CounterEnable = 1	 CounterInput = 1	 Time = 2:20	 PT:544
# Time: 995 ns	 Clk = 1	 nReset = 1	 CounterEnable = 1	 CounterInput = 1	 Time = 1:20	 PT:288
# Time: 1000 ns	 Clk = 0	 nReset = 1	 CounterEnable = 1	 CounterInput = 1	 Time = 1:20	 PT:288
# Time: 1005 ns	 Clk = 1	 nReset = 1	 CounterEnable = 1	 CounterInput = 1	 Time = 0:20	 PT:32
# Time: 1010 ns	 Clk = 0	 nReset = 1	 CounterEnable = 1	 CounterInput = 1	 Time = 0:20	 PT:32
