Counter_Main/simulation/modelsim/msim_transcript
# Reading pref.tcl
# do Counter_Main_run_msim_rtl_verilog.do
# if {[file exists rtl_work]} {
# 	vdel -lib rtl_work -all
# }
# vlib rtl_work
# vmap work rtl_work
# Model Technology ModelSim - Intel FPGA Edition vmap 2020.1 Lib Mapping Utility 2020.02 Feb 28 2020
# vmap work rtl_work 
# Copying C:/intelFPGA_lite/20.1/modelsim_ase/win32aloem/../modelsim.ini to modelsim.ini
# Modifying modelsim.ini
# 
# vlog -vlog01compat -work work +incdir+C:/Users/Jhury/Desktop/SCHOOL\ STUFF/CpE\ -\ 3rd\ Year/HDL/FINAL\ PROJ/HDL-Final/Counter_Main {C:/Users/Jhury/Desktop/SCHOOL STUFF/CpE - 3rd Year/HDL/FINAL PROJ/HDL-Final/Counter_Main/Counter_Main.v}
# Model Technology ModelSim - Intel FPGA Edition vlog 2020.1 Compiler 2020.02 Feb 28 2020
# Start time: 00:30:34 on Dec 22,2022
# vlog -reportprogress 300 -vlog01compat -work work "+incdir+C:/Users/Jhury/Desktop/SCHOOL STUFF/CpE - 3rd Year/HDL/FINAL PROJ/HDL-Final/Counter_Main" C:/Users/Jhury/Desktop/SCHOOL STUFF/CpE - 3rd Year/HDL/FINAL PROJ/HDL-Final/Counter_Main/Counter_Main.v 
# -- Compiling module Counter_Main
# 
# Top level modules:
# 	Counter_Main
# End time: 00:30:34 on Dec 22,2022, Elapsed time: 0:00:00
# Errors: 0, Warnings: 0
# vlog -vlog01compat -work work +incdir+C:/Users/Jhury/Desktop/SCHOOL\ STUFF/CpE\ -\ 3rd\ Year/HDL/FINAL\ PROJ/HDL-Final/Counter_Main {C:/Users/Jhury/Desktop/SCHOOL STUFF/CpE - 3rd Year/HDL/FINAL PROJ/HDL-Final/Counter_Main/ComplexCounter_4Bit.v}
# Model Technology ModelSim - Intel FPGA Edition vlog 2020.1 Compiler 2020.02 Feb 28 2020
# Start time: 00:30:34 on Dec 22,2022
# vlog -reportprogress 300 -vlog01compat -work work "+incdir+C:/Users/Jhury/Desktop/SCHOOL STUFF/CpE - 3rd Year/HDL/FINAL PROJ/HDL-Final/Counter_Main" C:/Users/Jhury/Desktop/SCHOOL STUFF/CpE - 3rd Year/HDL/FINAL PROJ/HDL-Final/Counter_Main/ComplexCounter_4Bit.v 
# -- Compiling module ComplexCounter_4Bit
# 
# Top level modules:
# 	ComplexCounter_4Bit
# End time: 00:30:34 on Dec 22,2022, Elapsed time: 0:00:00
# Errors: 0, Warnings: 0
# 
# vlog -vlog01compat -work work +incdir+C:/Users/Jhury/Desktop/SCHOOL\ STUFF/CpE\ -\ 3rd\ Year/HDL/FINAL\ PROJ/HDL-Final/Counter_Main {C:/Users/Jhury/Desktop/SCHOOL STUFF/CpE - 3rd Year/HDL/FINAL PROJ/HDL-Final/Counter_Main/tb_Counter_Main.v}
# Model Technology ModelSim - Intel FPGA Edition vlog 2020.1 Compiler 2020.02 Feb 28 2020
# Start time: 00:30:34 on Dec 22,2022
# vlog -reportprogress 300 -vlog01compat -work work "+incdir+C:/Users/Jhury/Desktop/SCHOOL STUFF/CpE - 3rd Year/HDL/FINAL PROJ/HDL-Final/Counter_Main" C:/Users/Jhury/Desktop/SCHOOL STUFF/CpE - 3rd Year/HDL/FINAL PROJ/HDL-Final/Counter_Main/tb_Counter_Main.v 
# -- Compiling module tb_Counter_Main
# 
# Top level modules:
# 	tb_Counter_Main
# End time: 00:30:34 on Dec 22,2022, Elapsed time: 0:00:00
# Errors: 0, Warnings: 0
# 
# vsim -t 1ps -L altera_ver -L lpm_ver -L sgate_ver -L altera_mf_ver -L altera_lnsim_ver -L fiftyfivenm_ver -L rtl_work -L work -voptargs="+acc"  tb_Counter_Main
# vsim -t 1ps -L altera_ver -L lpm_ver -L sgate_ver -L altera_mf_ver -L altera_lnsim_ver -L fiftyfivenm_ver -L rtl_work -L work -voptargs=""+acc"" tb_Counter_Main 
# Start time: 00:30:34 on Dec 22,2022
# Loading work.tb_Counter_Main
# Loading work.Counter_Main
# Loading work.ComplexCounter_4Bit
# 
# add wave *
# ** Warning: (vsim-WLF-5000) WLF file currently in use: vsim.wlf
#           File in use by: Thomas  Hostname: THOMAS-PC  ProcessID: 3468
#           Attempting to use alternate WLF file "./wlftnvxkhb".
# ** Warning: (vsim-WLF-5001) Could not open WLF file: vsim.wlf
#           Using alternate file: ./wlftnvxkhb
# view structure
# .main_pane.structure.interior.cs.body.struct
# view signals
# .main_pane.objects.interior.cs.body.tree
# run -all
# Starting simulation at                    0 ns...
# Time:   0 ns	 Clk = 0	 nReset = 0	 CounterEnable = x	 CounterInput = x	 Time = 0:00
# Time:   5 ns	 Clk = 1	 nReset = 0	 CounterEnable = x	 CounterInput = x	 Time = 0:00
# Time:  10 ns	 Clk = 0	 nReset = 1	 CounterEnable = 1	 CounterInput = 5	 Time = 9:50
# Time:  15 ns	 Clk = 1	 nReset = 1	 CounterEnable = 1	 CounterInput = 5	 Time = 9:50
# Time:  20 ns	 Clk = 0	 nReset = 1	 CounterEnable = 1	 CounterInput = 5	 Time = 9:49
# Time:  25 ns	 Clk = 1	 nReset = 1	 CounterEnable = 1	 CounterInput = 5	 Time = 9:49
# Time:  30 ns	 Clk = 0	 nReset = 1	 CounterEnable = 1	 CounterInput = 5	 Time = 9:48
# Time:  35 ns	 Clk = 1	 nReset = 1	 CounterEnable = 1	 CounterInput = 5	 Time = 9:48
# Time:  40 ns	 Clk = 0	 nReset = 1	 CounterEnable = 1	 CounterInput = 5	 Time = 9:47
# Time:  45 ns	 Clk = 1	 nReset = 1	 CounterEnable = 1	 CounterInput = 5	 Time = 9:47
# Time:  50 ns	 Clk = 0	 nReset = 1	 CounterEnable = 1	 CounterInput = 5	 Time = 9:46
# Time:  55 ns	 Clk = 1	 nReset = 1	 CounterEnable = 1	 CounterInput = 5	 Time = 9:46
# Time:  60 ns	 Clk = 0	 nReset = 1	 CounterEnable = 1	 CounterInput = 5	 Time = 9:45
# Time:  65 ns	 Clk = 1	 nReset = 1	 CounterEnable = 1	 CounterInput = 5	 Time = 9:45
# Time:  70 ns	 Clk = 0	 nReset = 1	 CounterEnable = 1	 CounterInput = 5	 Time = 9:44
# Time:  75 ns	 Clk = 1	 nReset = 1	 CounterEnable = 1	 CounterInput = 5	 Time = 9:44
# Time:  80 ns	 Clk = 0	 nReset = 1	 CounterEnable = 1	 CounterInput = 5	 Time = 9:43
# Time:  85 ns	 Clk = 1	 nReset = 1	 CounterEnable = 1	 CounterInput = 5	 Time = 9:43
# Time:  90 ns	 Clk = 0	 nReset = 1	 CounterEnable = 1	 CounterInput = 5	 Time = 9:42
# Time:  95 ns	 Clk = 1	 nReset = 1	 CounterEnable = 1	 CounterInput = 5	 Time = 9:42
# Time: 100 ns	 Clk = 0	 nReset = 1	 CounterEnable = 1	 CounterInput = 5	 Time = 9:41
# Time: 105 ns	 Clk = 1	 nReset = 1	 CounterEnable = 1	 CounterInput = 5	 Time = 9:41
# Time: 110 ns	 Clk = 0	 nReset = 1	 CounterEnable = 1	 CounterInput = 5	 Time = 9:40
# Time: 115 ns	 Clk = 1	 nReset = 1	 CounterEnable = 1	 CounterInput = 5	 Time = 9:40
# Time: 120 ns	 Clk = 0	 nReset = 1	 CounterEnable = 1	 CounterInput = 5	 Time = 9:39
# Time: 125 ns	 Clk = 1	 nReset = 1	 CounterEnable = 1	 CounterInput = 5	 Time = 9:39
# Time: 130 ns	 Clk = 0	 nReset = 1	 CounterEnable = 1	 CounterInput = 5	 Time = 9:38
# Time: 135 ns	 Clk = 1	 nReset = 1	 CounterEnable = 1	 CounterInput = 5	 Time = 9:38
# Time: 140 ns	 Clk = 0	 nReset = 1	 CounterEnable = 1	 CounterInput = 5	 Time = 9:37
# Time: 145 ns	 Clk = 1	 nReset = 1	 CounterEnable = 1	 CounterInput = 5	 Time = 9:37
# Time: 150 ns	 Clk = 0	 nReset = 1	 CounterEnable = 1	 CounterInput = 5	 Time = 9:36
# Time: 155 ns	 Clk = 1	 nReset = 1	 CounterEnable = 1	 CounterInput = 5	 Time = 9:36
# Time: 160 ns	 Clk = 0	 nReset = 1	 CounterEnable = 1	 CounterInput = 5	 Time = 9:35
# Time: 165 ns	 Clk = 1	 nReset = 1	 CounterEnable = 1	 CounterInput = 5	 Time = 9:35
# Time: 170 ns	 Clk = 0	 nReset = 1	 CounterEnable = 1	 CounterInput = 5	 Time = 9:34
# Time: 175 ns	 Clk = 1	 nReset = 1	 CounterEnable = 1	 CounterInput = 5	 Time = 9:34
# Time: 180 ns	 Clk = 0	 nReset = 1	 CounterEnable = 1	 CounterInput = 5	 Time = 9:33
# Time: 185 ns	 Clk = 1	 nReset = 1	 CounterEnable = 1	 CounterInput = 5	 Time = 9:33
# Time: 190 ns	 Clk = 0	 nReset = 1	 CounterEnable = 1	 CounterInput = 5	 Time = 9:32
# Time: 195 ns	 Clk = 1	 nReset = 1	 CounterEnable = 1	 CounterInput = 5	 Time = 9:32
# Time: 200 ns	 Clk = 0	 nReset = 1	 CounterEnable = 1	 CounterInput = 5	 Time = 9:31
# Time: 205 ns	 Clk = 1	 nReset = 1	 CounterEnable = 1	 CounterInput = 5	 Time = 9:31
# Time: 210 ns	 Clk = 0	 nReset = 1	 CounterEnable = 1	 CounterInput = 5	 Time = 9:30
# Time: 215 ns	 Clk = 1	 nReset = 1	 CounterEnable = 1	 CounterInput = 5	 Time = 9:30
# Time: 220 ns	 Clk = 0	 nReset = 1	 CounterEnable = 1	 CounterInput = 5	 Time = 9:29
# Time: 225 ns	 Clk = 1	 nReset = 1	 CounterEnable = 1	 CounterInput = 5	 Time = 9:29
# Time: 230 ns	 Clk = 0	 nReset = 1	 CounterEnable = 1	 CounterInput = 5	 Time = 9:28
# Time: 235 ns	 Clk = 1	 nReset = 1	 CounterEnable = 1	 CounterInput = 5	 Time = 9:28
# Time: 240 ns	 Clk = 0	 nReset = 1	 CounterEnable = 1	 CounterInput = 5	 Time = 9:27
# Time: 245 ns	 Clk = 1	 nReset = 1	 CounterEnable = 1	 CounterInput = 5	 Time = 9:27
# Time: 250 ns	 Clk = 0	 nReset = 1	 CounterEnable = 1	 CounterInput = 5	 Time = 9:26
# Time: 255 ns	 Clk = 1	 nReset = 1	 CounterEnable = 1	 CounterInput = 5	 Time = 9:26
# Time: 260 ns	 Clk = 0	 nReset = 1	 CounterEnable = 1	 CounterInput = 5	 Time = 9:25
# Time: 265 ns	 Clk = 1	 nReset = 1	 CounterEnable = 1	 CounterInput = 5	 Time = 9:25
# Time: 270 ns	 Clk = 0	 nReset = 1	 CounterEnable = 1	 CounterInput = 5	 Time = 9:24
# Time: 275 ns	 Clk = 1	 nReset = 1	 CounterEnable = 1	 CounterInput = 5	 Time = 9:24
# Time: 280 ns	 Clk = 0	 nReset = 1	 CounterEnable = 1	 CounterInput = 5	 Time = 9:23
# Time: 285 ns	 Clk = 1	 nReset = 1	 CounterEnable = 1	 CounterInput = 5	 Time = 9:23
# Time: 290 ns	 Clk = 0	 nReset = 1	 CounterEnable = 1	 CounterInput = 5	 Time = 9:22
# Time: 295 ns	 Clk = 1	 nReset = 1	 CounterEnable = 1	 CounterInput = 5	 Time = 9:22
# Time: 300 ns	 Clk = 0	 nReset = 1	 CounterEnable = 1	 CounterInput = 5	 Time = 9:21
# Time: 305 ns	 Clk = 1	 nReset = 1	 CounterEnable = 1	 CounterInput = 5	 Time = 9:21
# Time: 310 ns	 Clk = 0	 nReset = 1	 CounterEnable = 1	 CounterInput = 5	 Time = 9:20
# Time: 315 ns	 Clk = 1	 nReset = 1	 CounterEnable = 1	 CounterInput = 5	 Time = 9:20
# Time: 320 ns	 Clk = 0	 nReset = 1	 CounterEnable = 1	 CounterInput = 5	 Time = 9:19
# Time: 325 ns	 Clk = 1	 nReset = 1	 CounterEnable = 1	 CounterInput = 5	 Time = 9:19
# Time: 330 ns	 Clk = 0	 nReset = 1	 CounterEnable = 1	 CounterInput = 5	 Time = 9:18
# Time: 335 ns	 Clk = 1	 nReset = 1	 CounterEnable = 1	 CounterInput = 5	 Time = 9:18
# Time: 340 ns	 Clk = 0	 nReset = 1	 CounterEnable = 1	 CounterInput = 5	 Time = 9:17
# Time: 345 ns	 Clk = 1	 nReset = 1	 CounterEnable = 1	 CounterInput = 5	 Time = 9:17
# Time: 350 ns	 Clk = 0	 nReset = 1	 CounterEnable = 1	 CounterInput = 5	 Time = 9:16
# Time: 355 ns	 Clk = 1	 nReset = 1	 CounterEnable = 1	 CounterInput = 5	 Time = 9:16
# Time: 360 ns	 Clk = 0	 nReset = 1	 CounterEnable = 1	 CounterInput = 5	 Time = 9:15
# Time: 365 ns	 Clk = 1	 nReset = 1	 CounterEnable = 1	 CounterInput = 5	 Time = 9:15
# Time: 370 ns	 Clk = 0	 nReset = 1	 CounterEnable = 1	 CounterInput = 5	 Time = 9:14
# Time: 375 ns	 Clk = 1	 nReset = 1	 CounterEnable = 1	 CounterInput = 5	 Time = 9:14
# Time: 380 ns	 Clk = 0	 nReset = 1	 CounterEnable = 1	 CounterInput = 5	 Time = 9:13
# Time: 385 ns	 Clk = 1	 nReset = 1	 CounterEnable = 1	 CounterInput = 5	 Time = 9:13
# Time: 390 ns	 Clk = 0	 nReset = 1	 CounterEnable = 1	 CounterInput = 5	 Time = 9:12
# Time: 395 ns	 Clk = 1	 nReset = 1	 CounterEnable = 1	 CounterInput = 5	 Time = 9:12
# Time: 400 ns	 Clk = 0	 nReset = 1	 CounterEnable = 1	 CounterInput = 5	 Time = 9:11
# Time: 405 ns	 Clk = 1	 nReset = 1	 CounterEnable = 1	 CounterInput = 5	 Time = 9:11
# Time: 410 ns	 Clk = 0	 nReset = 1	 CounterEnable = 1	 CounterInput = 5	 Time = 9:10
# Time: 415 ns	 Clk = 1	 nReset = 1	 CounterEnable = 1	 CounterInput = 5	 Time = 9:10
# Time: 420 ns	 Clk = 0	 nReset = 1	 CounterEnable = 1	 CounterInput = 5	 Time = 9:09
# Time: 425 ns	 Clk = 1	 nReset = 1	 CounterEnable = 1	 CounterInput = 5	 Time = 9:09
# Time: 430 ns	 Clk = 0	 nReset = 1	 CounterEnable = 1	 CounterInput = 5	 Time = 9:08
# Time: 435 ns	 Clk = 1	 nReset = 1	 CounterEnable = 1	 CounterInput = 5	 Time = 9:08
# Time: 440 ns	 Clk = 0	 nReset = 1	 CounterEnable = 1	 CounterInput = 5	 Time = 9:07
# Time: 445 ns	 Clk = 1	 nReset = 1	 CounterEnable = 1	 CounterInput = 5	 Time = 9:07
# Time: 450 ns	 Clk = 0	 nReset = 1	 CounterEnable = 1	 CounterInput = 5	 Time = 9:06
# Time: 455 ns	 Clk = 1	 nReset = 1	 CounterEnable = 1	 CounterInput = 5	 Time = 9:06
# Time: 460 ns	 Clk = 0	 nReset = 1	 CounterEnable = 1	 CounterInput = 5	 Time = 9:05
# Time: 465 ns	 Clk = 1	 nReset = 1	 CounterEnable = 1	 CounterInput = 5	 Time = 9:05
# Time: 470 ns	 Clk = 0	 nReset = 1	 CounterEnable = 1	 CounterInput = 5	 Time = 9:04
# Time: 475 ns	 Clk = 1	 nReset = 1	 CounterEnable = 1	 CounterInput = 5	 Time = 9:04
# Time: 480 ns	 Clk = 0	 nReset = 1	 CounterEnable = 1	 CounterInput = 5	 Time = 9:03
# Time: 485 ns	 Clk = 1	 nReset = 1	 CounterEnable = 1	 CounterInput = 5	 Time = 9:03
# Time: 490 ns	 Clk = 0	 nReset = 1	 CounterEnable = 1	 CounterInput = 5	 Time = 9:02
# Time: 495 ns	 Clk = 1	 nReset = 1	 CounterEnable = 1	 CounterInput = 5	 Time = 9:02
# Time: 500 ns	 Clk = 0	 nReset = 1	 CounterEnable = 1	 CounterInput = 5	 Time = 9:01
# Time: 505 ns	 Clk = 1	 nReset = 1	 CounterEnable = 1	 CounterInput = 5	 Time = 9:01
# Time: 510 ns	 Clk = 0	 nReset = 1	 CounterEnable = 1	 CounterInput = 5	 Time = 9:00
# Time: 515 ns	 Clk = 1	 nReset = 1	 CounterEnable = 1	 CounterInput = 5	 Time = 9:00
# Time: 520 ns	 Clk = 0	 nReset = 1	 CounterEnable = 1	 CounterInput = 5	 Time = 8:59
# Time: 525 ns	 Clk = 1	 nReset = 1	 CounterEnable = 1	 CounterInput = 5	 Time = 8:59
# Time: 530 ns	 Clk = 0	 nReset = 1	 CounterEnable = 1	 CounterInput = 5	 Time = 8:58
# Time: 535 ns	 Clk = 1	 nReset = 1	 CounterEnable = 1	 CounterInput = 5	 Time = 8:58
# Time: 540 ns	 Clk = 0	 nReset = 1	 CounterEnable = 1	 CounterInput = 5	 Time = 8:57
# Time: 545 ns	 Clk = 1	 nReset = 1	 CounterEnable = 1	 CounterInput = 5	 Time = 8:57
# Time: 550 ns	 Clk = 0	 nReset = 1	 CounterEnable = 1	 CounterInput = 5	 Time = 8:56
# Time: 555 ns	 Clk = 1	 nReset = 1	 CounterEnable = 1	 CounterInput = 5	 Time = 8:56
# Time: 560 ns	 Clk = 0	 nReset = 1	 CounterEnable = 1	 CounterInput = 5	 Time = 8:55
# Time: 565 ns	 Clk = 1	 nReset = 1	 CounterEnable = 1	 CounterInput = 5	 Time = 8:55
# Time: 570 ns	 Clk = 0	 nReset = 1	 CounterEnable = 1	 CounterInput = 5	 Time = 8:54
# Time: 575 ns	 Clk = 1	 nReset = 1	 CounterEnable = 1	 CounterInput = 5	 Time = 8:54
# Time: 580 ns	 Clk = 0	 nReset = 1	 CounterEnable = 1	 CounterInput = 5	 Time = 8:53
# Time: 585 ns	 Clk = 1	 nReset = 1	 CounterEnable = 1	 CounterInput = 5	 Time = 8:53
# Time: 590 ns	 Clk = 0	 nReset = 1	 CounterEnable = 1	 CounterInput = 5	 Time = 8:52
# Time: 595 ns	 Clk = 1	 nReset = 1	 CounterEnable = 1	 CounterInput = 5	 Time = 8:52
# Time: 600 ns	 Clk = 0	 nReset = 1	 CounterEnable = 1	 CounterInput = 5	 Time = 8:51
# Time: 605 ns	 Clk = 1	 nReset = 1	 CounterEnable = 1	 CounterInput = 5	 Time = 8:51
# Time: 610 ns	 Clk = 0	 nReset = 1	 CounterEnable = 1	 CounterInput = 5	 Time = 8:50
# Time: 615 ns	 Clk = 1	 nReset = 1	 CounterEnable = 1	 CounterInput = 5	 Time = 8:50
# Time: 620 ns	 Clk = 0	 nReset = 1	 CounterEnable = 1	 CounterInput = 5	 Time = 8:49
# Time: 625 ns	 Clk = 1	 nReset = 1	 CounterEnable = 1	 CounterInput = 5	 Time = 8:49
# Time: 630 ns	 Clk = 0	 nReset = 1	 CounterEnable = 1	 CounterInput = 5	 Time = 8:48
# Time: 635 ns	 Clk = 1	 nReset = 1	 CounterEnable = 1	 CounterInput = 5	 Time = 8:48
# Time: 640 ns	 Clk = 0	 nReset = 1	 CounterEnable = 1	 CounterInput = 5	 Time = 8:47
# Time: 645 ns	 Clk = 1	 nReset = 1	 CounterEnable = 1	 CounterInput = 5	 Time = 8:47
# Time: 650 ns	 Clk = 0	 nReset = 1	 CounterEnable = 1	 CounterInput = 5	 Time = 8:46
# Time: 655 ns	 Clk = 1	 nReset = 1	 CounterEnable = 1	 CounterInput = 5	 Time = 8:46
# Time: 660 ns	 Clk = 0	 nReset = 1	 CounterEnable = 1	 CounterInput = 5	 Time = 8:45
# Time: 665 ns	 Clk = 1	 nReset = 1	 CounterEnable = 1	 CounterInput = 5	 Time = 8:45
# Time: 670 ns	 Clk = 0	 nReset = 1	 CounterEnable = 1	 CounterInput = 5	 Time = 8:44
# Time: 675 ns	 Clk = 1	 nReset = 1	 CounterEnable = 1	 CounterInput = 5	 Time = 8:44
# Time: 680 ns	 Clk = 0	 nReset = 1	 CounterEnable = 1	 CounterInput = 5	 Time = 8:43
# Time: 685 ns	 Clk = 1	 nReset = 1	 CounterEnable = 1	 CounterInput = 5	 Time = 8:43
# Time: 690 ns	 Clk = 0	 nReset = 1	 CounterEnable = 1	 CounterInput = 5	 Time = 8:42
# Time: 695 ns	 Clk = 1	 nReset = 1	 CounterEnable = 1	 CounterInput = 5	 Time = 8:42
# Time: 700 ns	 Clk = 0	 nReset = 1	 CounterEnable = 1	 CounterInput = 5	 Time = 8:41
# Time: 705 ns	 Clk = 1	 nReset = 1	 CounterEnable = 1	 CounterInput = 5	 Time = 8:41
# Time: 710 ns	 Clk = 0	 nReset = 1	 CounterEnable = 1	 CounterInput = 5	 Time = 8:40
# Time: 715 ns	 Clk = 1	 nReset = 1	 CounterEnable = 1	 CounterInput = 5	 Time = 8:40
# Time: 720 ns	 Clk = 0	 nReset = 1	 CounterEnable = 1	 CounterInput = 5	 Time = 8:39
# Time: 725 ns	 Clk = 1	 nReset = 1	 CounterEnable = 1	 CounterInput = 5	 Time = 8:39
# Time: 730 ns	 Clk = 0	 nReset = 1	 CounterEnable = 1	 CounterInput = 5	 Time = 8:38
# Time: 735 ns	 Clk = 1	 nReset = 1	 CounterEnable = 1	 CounterInput = 5	 Time = 8:38
# Time: 740 ns	 Clk = 0	 nReset = 1	 CounterEnable = 1	 CounterInput = 5	 Time = 8:37
# Time: 745 ns	 Clk = 1	 nReset = 1	 CounterEnable = 1	 CounterInput = 5	 Time = 8:37
# Time: 750 ns	 Clk = 0	 nReset = 1	 CounterEnable = 1	 CounterInput = 5	 Time = 8:36
# Time: 755 ns	 Clk = 1	 nReset = 1	 CounterEnable = 1	 CounterInput = 5	 Time = 8:36
# Time: 760 ns	 Clk = 0	 nReset = 1	 CounterEnable = 1	 CounterInput = 5	 Time = 8:35
# Time: 765 ns	 Clk = 1	 nReset = 1	 CounterEnable = 1	 CounterInput = 5	 Time = 8:35
# Time: 770 ns	 Clk = 0	 nReset = 1	 CounterEnable = 1	 CounterInput = 5	 Time = 8:34
# Time: 775 ns	 Clk = 1	 nReset = 1	 CounterEnable = 1	 CounterInput = 5	 Time = 8:34
# Time: 780 ns	 Clk = 0	 nReset = 1	 CounterEnable = 1	 CounterInput = 5	 Time = 8:33
# Time: 785 ns	 Clk = 1	 nReset = 1	 CounterEnable = 1	 CounterInput = 5	 Time = 8:33
# Time: 790 ns	 Clk = 0	 nReset = 1	 CounterEnable = 1	 CounterInput = 5	 Time = 8:32
# Time: 795 ns	 Clk = 1	 nReset = 1	 CounterEnable = 1	 CounterInput = 5	 Time = 8:32
# Time: 800 ns	 Clk = 0	 nReset = 1	 CounterEnable = 1	 CounterInput = 5	 Time = 8:31
# Time: 805 ns	 Clk = 1	 nReset = 1	 CounterEnable = 1	 CounterInput = 5	 Time = 8:31
# Time: 810 ns	 Clk = 0	 nReset = 1	 CounterEnable = 1	 CounterInput = 5	 Time = 8:30
# Time: 815 ns	 Clk = 1	 nReset = 1	 CounterEnable = 1	 CounterInput = 5	 Time = 8:30
# Time: 820 ns	 Clk = 0	 nReset = 1	 CounterEnable = 1	 CounterInput = 5	 Time = 8:29
# Time: 825 ns	 Clk = 1	 nReset = 1	 CounterEnable = 1	 CounterInput = 5	 Time = 8:29
# Time: 830 ns	 Clk = 0	 nReset = 1	 CounterEnable = 1	 CounterInput = 5	 Time = 8:28
# Time: 835 ns	 Clk = 1	 nReset = 1	 CounterEnable = 1	 CounterInput = 5	 Time = 8:28
# Time: 840 ns	 Clk = 0	 nReset = 1	 CounterEnable = 1	 CounterInput = 5	 Time = 8:27
# Time: 845 ns	 Clk = 1	 nReset = 1	 CounterEnable = 1	 CounterInput = 5	 Time = 8:27
# Time: 850 ns	 Clk = 0	 nReset = 1	 CounterEnable = 1	 CounterInput = 5	 Time = 8:26
# Time: 855 ns	 Clk = 1	 nReset = 1	 CounterEnable = 1	 CounterInput = 5	 Time = 8:26
# Time: 860 ns	 Clk = 0	 nReset = 1	 CounterEnable = 1	 CounterInput = 5	 Time = 8:25
# Time: 865 ns	 Clk = 1	 nReset = 1	 CounterEnable = 1	 CounterInput = 5	 Time = 8:25
# Time: 870 ns	 Clk = 0	 nReset = 1	 CounterEnable = 1	 CounterInput = 5	 Time = 8:24
# Time: 875 ns	 Clk = 1	 nReset = 1	 CounterEnable = 1	 CounterInput = 5	 Time = 8:24
# Time: 880 ns	 Clk = 0	 nReset = 1	 CounterEnable = 1	 CounterInput = 5	 Time = 8:23
# Time: 885 ns	 Clk = 1	 nReset = 1	 CounterEnable = 1	 CounterInput = 5	 Time = 8:23
# Time: 890 ns	 Clk = 0	 nReset = 1	 CounterEnable = 1	 CounterInput = 5	 Time = 8:22
# Time: 895 ns	 Clk = 1	 nReset = 1	 CounterEnable = 1	 CounterInput = 5	 Time = 8:22
# Time: 900 ns	 Clk = 0	 nReset = 1	 CounterEnable = 1	 CounterInput = 5	 Time = 8:21
# Time: 905 ns	 Clk = 1	 nReset = 1	 CounterEnable = 1	 CounterInput = 5	 Time = 8:21
# Time: 910 ns	 Clk = 0	 nReset = 1	 CounterEnable = 1	 CounterInput = 5	 Time = 8:20
# Time: 915 ns	 Clk = 1	 nReset = 1	 CounterEnable = 1	 CounterInput = 5	 Time = 8:20
# Time: 920 ns	 Clk = 0	 nReset = 1	 CounterEnable = 1	 CounterInput = 5	 Time = 8:19
# Time: 925 ns	 Clk = 1	 nReset = 1	 CounterEnable = 1	 CounterInput = 5	 Time = 8:19
# Time: 930 ns	 Clk = 0	 nReset = 1	 CounterEnable = 1	 CounterInput = 5	 Time = 8:18
# Time: 935 ns	 Clk = 1	 nReset = 1	 CounterEnable = 1	 CounterInput = 5	 Time = 8:18
# Time: 940 ns	 Clk = 0	 nReset = 1	 CounterEnable = 1	 CounterInput = 5	 Time = 8:17
# Time: 945 ns	 Clk = 1	 nReset = 1	 CounterEnable = 1	 CounterInput = 5	 Time = 8:17
# Time: 950 ns	 Clk = 0	 nReset = 1	 CounterEnable = 1	 CounterInput = 5	 Time = 8:16
# Time: 955 ns	 Clk = 1	 nReset = 1	 CounterEnable = 1	 CounterInput = 5	 Time = 8:16
# Time: 960 ns	 Clk = 0	 nReset = 1	 CounterEnable = 1	 CounterInput = 5	 Time = 8:15
# Time: 965 ns	 Clk = 1	 nReset = 1	 CounterEnable = 1	 CounterInput = 5	 Time = 8:15
# Time: 970 ns	 Clk = 0	 nReset = 1	 CounterEnable = 1	 CounterInput = 5	 Time = 8:14
# Time: 975 ns	 Clk = 1	 nReset = 1	 CounterEnable = 1	 CounterInput = 5	 Time = 8:14
# Time: 980 ns	 Clk = 0	 nReset = 1	 CounterEnable = 1	 CounterInput = 5	 Time = 8:13
# Time: 985 ns	 Clk = 1	 nReset = 1	 CounterEnable = 1	 CounterInput = 5	 Time = 8:13
# Time: 990 ns	 Clk = 0	 nReset = 1	 CounterEnable = 1	 CounterInput = 5	 Time = 8:12
# Time: 995 ns	 Clk = 1	 nReset = 1	 CounterEnable = 1	 CounterInput = 5	 Time = 8:12
# Time: 1000 ns	 Clk = 0	 nReset = 1	 CounterEnable = 1	 CounterInput = 5	 Time = 8:11
# Time: 1005 ns	 Clk = 1	 nReset = 1	 CounterEnable = 1	 CounterInput = 5	 Time = 8:11
# Time: 1010 ns	 Clk = 0	 nReset = 1	 CounterEnable = 1	 CounterInput = 5	 Time = 8:10
# Time: 1015 ns	 Clk = 1	 nReset = 1	 CounterEnable = 1	 CounterInput = 5	 Time = 8:10
# Time: 1020 ns	 Clk = 0	 nReset = 1	 CounterEnable = 1	 CounterInput = 5	 Time = 8:09
# Time: 1025 ns	 Clk = 1	 nReset = 1	 CounterEnable = 1	 CounterInput = 5	 Time = 8:09
# Time: 1030 ns	 Clk = 0	 nReset = 1	 CounterEnable = 1	 CounterInput = 5	 Time = 8:08
# Time: 1035 ns	 Clk = 1	 nReset = 1	 CounterEnable = 1	 CounterInput = 5	 Time = 8:08
# Time: 1040 ns	 Clk = 0	 nReset = 1	 CounterEnable = 1	 CounterInput = 5	 Time = 8:07
# Time: 1045 ns	 Clk = 1	 nReset = 1	 CounterEnable = 1	 CounterInput = 5	 Time = 8:07
# Time: 1050 ns	 Clk = 0	 nReset = 1	 CounterEnable = 1	 CounterInput = 5	 Time = 8:06
# Time: 1055 ns	 Clk = 1	 nReset = 1	 CounterEnable = 1	 CounterInput = 5	 Time = 8:06
# Time: 1060 ns	 Clk = 0	 nReset = 1	 CounterEnable = 1	 CounterInput = 5	 Time = 8:05
# Time: 1065 ns	 Clk = 1	 nReset = 1	 CounterEnable = 1	 CounterInput = 5	 Time = 8:05
# Time: 1070 ns	 Clk = 0	 nReset = 1	 CounterEnable = 1	 CounterInput = 5	 Time = 8:04
# Time: 1075 ns	 Clk = 1	 nReset = 1	 CounterEnable = 1	 CounterInput = 5	 Time = 8:04
# Time: 1080 ns	 Clk = 0	 nReset = 1	 CounterEnable = 1	 CounterInput = 5	 Time = 8:03
# Time: 1085 ns	 Clk = 1	 nReset = 1	 CounterEnable = 1	 CounterInput = 5	 Time = 8:03
# Time: 1090 ns	 Clk = 0	 nReset = 1	 CounterEnable = 1	 CounterInput = 5	 Time = 8:02
# Time: 1095 ns	 Clk = 1	 nReset = 1	 CounterEnable = 1	 CounterInput = 5	 Time = 8:02
# Time: 1100 ns	 Clk = 0	 nReset = 1	 CounterEnable = 1	 CounterInput = 5	 Time = 8:01
# Time: 1105 ns	 Clk = 1	 nReset = 1	 CounterEnable = 1	 CounterInput = 5	 Time = 8:01
# Time: 1110 ns	 Clk = 0	 nReset = 1	 CounterEnable = 1	 CounterInput = 5	 Time = 8:00
# Time: 1115 ns	 Clk = 1	 nReset = 1	 CounterEnable = 1	 CounterInput = 5	 Time = 8:00
# Time: 1120 ns	 Clk = 0	 nReset = 1	 CounterEnable = 1	 CounterInput = 5	 Time = 7:59
# Time: 1125 ns	 Clk = 1	 nReset = 1	 CounterEnable = 1	 CounterInput = 5	 Time = 7:59
