ChargingStation/simulation/modelsim/msim_transcript
# Reading pref.tcl
# do ChargingStation_run_msim_rtl_verilog.do
# if {[file exists rtl_work]} {
# 	vdel -lib rtl_work -all
# }
# vlib rtl_work
# vmap work rtl_work
# Model Technology ModelSim - Intel FPGA Edition vmap 2020.1 Lib Mapping Utility 2020.02 Feb 28 2020
# vmap work rtl_work 
# Copying C:/intelFPGA_lite/20.1/modelsim_ase/win32aloem/../modelsim.ini to modelsim.ini
# Modifying modelsim.ini
# 
# vlog -vlog01compat -work work +incdir+C:/Users/Jhury/Desktop/SCHOOL\ STUFF/CpE\ -\ 3rd\ Year/HDL/FINAL\ PROJ/HDL-Final/ChargingStation {C:/Users/Jhury/Desktop/SCHOOL STUFF/CpE - 3rd Year/HDL/FINAL PROJ/HDL-Final/ChargingStation/ChargingStation.v}
# Model Technology ModelSim - Intel FPGA Edition vlog 2020.1 Compiler 2020.02 Feb 28 2020
# Start time: 21:27:43 on Dec 27,2022
# vlog -reportprogress 300 -vlog01compat -work work "+incdir+C:/Users/Jhury/Desktop/SCHOOL STUFF/CpE - 3rd Year/HDL/FINAL PROJ/HDL-Final/ChargingStation" C:/Users/Jhury/Desktop/SCHOOL STUFF/CpE - 3rd Year/HDL/FINAL PROJ/HDL-Final/ChargingStation/ChargingStation.v 
# -- Compiling module ChargingStation
# 
# Top level modules:
# 	ChargingStation
# End time: 21:27:43 on Dec 27,2022, Elapsed time: 0:00:00
# Errors: 0, Warnings: 0
# vlog -vlog01compat -work work +incdir+C:/Users/Jhury/Desktop/SCHOOL\ STUFF/CpE\ -\ 3rd\ Year/HDL/FINAL\ PROJ/HDL-Final/ChargingStation {C:/Users/Jhury/Desktop/SCHOOL STUFF/CpE - 3rd Year/HDL/FINAL PROJ/HDL-Final/ChargingStation/Mode_Select.v}
# Model Technology ModelSim - Intel FPGA Edition vlog 2020.1 Compiler 2020.02 Feb 28 2020
# Start time: 21:27:44 on Dec 27,2022
# vlog -reportprogress 300 -vlog01compat -work work "+incdir+C:/Users/Jhury/Desktop/SCHOOL STUFF/CpE - 3rd Year/HDL/FINAL PROJ/HDL-Final/ChargingStation" C:/Users/Jhury/Desktop/SCHOOL STUFF/CpE - 3rd Year/HDL/FINAL PROJ/HDL-Final/ChargingStation/Mode_Select.v 
# -- Compiling module Mode_Select
# 
# Top level modules:
# 	Mode_Select
# End time: 21:27:44 on Dec 27,2022, Elapsed time: 0:00:00
# Errors: 0, Warnings: 0
# vlog -vlog01compat -work work +incdir+C:/Users/Jhury/Desktop/SCHOOL\ STUFF/CpE\ -\ 3rd\ Year/HDL/FINAL\ PROJ/HDL-Final/ChargingStation {C:/Users/Jhury/Desktop/SCHOOL STUFF/CpE - 3rd Year/HDL/FINAL PROJ/HDL-Final/ChargingStation/Controller.v}
# Model Technology ModelSim - Intel FPGA Edition vlog 2020.1 Compiler 2020.02 Feb 28 2020
# Start time: 21:27:44 on Dec 27,2022
# vlog -reportprogress 300 -vlog01compat -work work "+incdir+C:/Users/Jhury/Desktop/SCHOOL STUFF/CpE - 3rd Year/HDL/FINAL PROJ/HDL-Final/ChargingStation" C:/Users/Jhury/Desktop/SCHOOL STUFF/CpE - 3rd Year/HDL/FINAL PROJ/HDL-Final/ChargingStation/Controller.v 
# -- Compiling module Controller
# 
# Top level modules:
# 	Controller
# End time: 21:27:44 on Dec 27,2022, Elapsed time: 0:00:00
# Errors: 0, Warnings: 0
# vlog -vlog01compat -work work +incdir+C:/Users/Jhury/Desktop/SCHOOL\ STUFF/CpE\ -\ 3rd\ Year/HDL/FINAL\ PROJ/HDL-Final/ChargingStation {C:/Users/Jhury/Desktop/SCHOOL STUFF/CpE - 3rd Year/HDL/FINAL PROJ/HDL-Final/ChargingStation/ComplexCounter_4Bit.v}
# Model Technology ModelSim - Intel FPGA Edition vlog 2020.1 Compiler 2020.02 Feb 28 2020
# Start time: 21:27:44 on Dec 27,2022
# vlog -reportprogress 300 -vlog01compat -work work "+incdir+C:/Users/Jhury/Desktop/SCHOOL STUFF/CpE - 3rd Year/HDL/FINAL PROJ/HDL-Final/ChargingStation" C:/Users/Jhury/Desktop/SCHOOL STUFF/CpE - 3rd Year/HDL/FINAL PROJ/HDL-Final/ChargingStation/ComplexCounter_4Bit.v 
# -- Compiling module ComplexCounter_4Bit
# 
# Top level modules:
# 	ComplexCounter_4Bit
# End time: 21:27:44 on Dec 27,2022, Elapsed time: 0:00:00
# Errors: 0, Warnings: 0
# 
# vlog -vlog01compat -work work +incdir+C:/Users/Jhury/Desktop/SCHOOL\ STUFF/CpE\ -\ 3rd\ Year/HDL/FINAL\ PROJ/HDL-Final/ChargingStation {C:/Users/Jhury/Desktop/SCHOOL STUFF/CpE - 3rd Year/HDL/FINAL PROJ/HDL-Final/ChargingStation/tb_ChargingStation.v}
# Model Technology ModelSim - Intel FPGA Edition vlog 2020.1 Compiler 2020.02 Feb 28 2020
# Start time: 21:27:44 on Dec 27,2022
# vlog -reportprogress 300 -vlog01compat -work work "+incdir+C:/Users/Jhury/Desktop/SCHOOL STUFF/CpE - 3rd Year/HDL/FINAL PROJ/HDL-Final/ChargingStation" C:/Users/Jhury/Desktop/SCHOOL STUFF/CpE - 3rd Year/HDL/FINAL PROJ/HDL-Final/ChargingStation/tb_ChargingStation.v 
# -- Compiling module tb_ChargingStation
# 
# Top level modules:
# 	tb_ChargingStation
# End time: 21:27:44 on Dec 27,2022, Elapsed time: 0:00:00
# Errors: 0, Warnings: 0
# 
# vsim -t 1ps -L altera_ver -L lpm_ver -L sgate_ver -L altera_mf_ver -L altera_lnsim_ver -L fiftyfivenm_ver -L rtl_work -L work -voptargs="+acc"  tb_ChargingStation
# vsim -t 1ps -L altera_ver -L lpm_ver -L sgate_ver -L altera_mf_ver -L altera_lnsim_ver -L fiftyfivenm_ver -L rtl_work -L work -voptargs=""+acc"" tb_ChargingStation 
# Start time: 21:27:44 on Dec 27,2022
# Loading work.tb_ChargingStation
# Loading work.ChargingStation
# Loading work.Mode_Select
# Loading work.Controller
# Loading work.ComplexCounter_4Bit
# 
# add wave *
# view structure
# .main_pane.structure.interior.cs.body.struct
# view signals
# .main_pane.objects.interior.cs.body.tree
# run -all
# Charging Phone at                    0 ns...
# Time:   0 ns	 Clk = 0	 nReset = 0	 Enable = x	 Coin = x	 Time Remaining = 0:00	
# Time:   5 ns	 Clk = 1	 nReset = 0	 Enable = x	 Coin = x	 Time Remaining = 0:00	
# Time:  10 ns	 Clk = 0	 nReset = 1	 Enable = 1	 Coin = 1	 Time Remaining = 0:00	
# Time:  15 ns	 Clk = 1	 nReset = 1	 Enable = 1	 Coin = 1	 Time Remaining = 1:59	
# Time:  20 ns	 Clk = 0	 nReset = 1	 Enable = 1	 Coin = 1	 Time Remaining = 1:59	
# Time:  25 ns	 Clk = 1	 nReset = 1	 Enable = 1	 Coin = 1	 Time Remaining = 1:58	
# Time:  30 ns	 Clk = 0	 nReset = 1	 Enable = 1	 Coin = 1	 Time Remaining = 1:58	
# Time:  35 ns	 Clk = 1	 nReset = 1	 Enable = 1	 Coin = 1	 Time Remaining = 1:57	
# Time:  40 ns	 Clk = 0	 nReset = 1	 Enable = 1	 Coin = 1	 Time Remaining = 1:57	
# Time:  45 ns	 Clk = 1	 nReset = 1	 Enable = 1	 Coin = 1	 Time Remaining = 1:56	
# Time:  50 ns	 Clk = 0	 nReset = 1	 Enable = 1	 Coin = 1	 Time Remaining = 1:56	
# Time:  55 ns	 Clk = 1	 nReset = 1	 Enable = 1	 Coin = 1	 Time Remaining = 1:55	
# Time:  60 ns	 Clk = 0	 nReset = 1	 Enable = 1	 Coin = 1	 Time Remaining = 1:55	
# Time:  65 ns	 Clk = 1	 nReset = 1	 Enable = 1	 Coin = 1	 Time Remaining = 1:54	
# Time:  70 ns	 Clk = 0	 nReset = 1	 Enable = 1	 Coin = 1	 Time Remaining = 1:54	
# Time:  75 ns	 Clk = 1	 nReset = 1	 Enable = 1	 Coin = 1	 Time Remaining = 1:53	
# Time:  80 ns	 Clk = 0	 nReset = 1	 Enable = 1	 Coin = 1	 Time Remaining = 1:53	
# Time:  85 ns	 Clk = 1	 nReset = 1	 Enable = 1	 Coin = 1	 Time Remaining = 1:52	
# Time:  90 ns	 Clk = 0	 nReset = 1	 Enable = 1	 Coin = 1	 Time Remaining = 1:52	
# Time:  95 ns	 Clk = 1	 nReset = 1	 Enable = 1	 Coin = 1	 Time Remaining = 1:51	
# Time: 100 ns	 Clk = 0	 nReset = 1	 Enable = 1	 Coin = 1	 Time Remaining = 1:51	
# Time: 105 ns	 Clk = 1	 nReset = 1	 Enable = 1	 Coin = 1	 Time Remaining = 1:50	
# Time: 110 ns	 Clk = 0	 nReset = 1	 Enable = 1	 Coin = 1	 Time Remaining = 1:50	
# Time: 115 ns	 Clk = 1	 nReset = 1	 Enable = 1	 Coin = 1	 Time Remaining = 1:49	
# Time: 120 ns	 Clk = 0	 nReset = 1	 Enable = 1	 Coin = 1	 Time Remaining = 1:49	
# Time: 125 ns	 Clk = 1	 nReset = 1	 Enable = 1	 Coin = 1	 Time Remaining = 1:48	
# Time: 130 ns	 Clk = 0	 nReset = 1	 Enable = 1	 Coin = 1	 Time Remaining = 1:48	
# Time: 135 ns	 Clk = 1	 nReset = 1	 Enable = 1	 Coin = 1	 Time Remaining = 1:47	
# Time: 140 ns	 Clk = 0	 nReset = 1	 Enable = 1	 Coin = 1	 Time Remaining = 1:47	
# Time: 145 ns	 Clk = 1	 nReset = 1	 Enable = 1	 Coin = 1	 Time Remaining = 1:46	
# Time: 150 ns	 Clk = 0	 nReset = 1	 Enable = 1	 Coin = 1	 Time Remaining = 1:46	
# Time: 155 ns	 Clk = 1	 nReset = 1	 Enable = 1	 Coin = 1	 Time Remaining = 1:45	
# Time: 160 ns	 Clk = 0	 nReset = 1	 Enable = 1	 Coin = 1	 Time Remaining = 1:45	
# Time: 165 ns	 Clk = 1	 nReset = 1	 Enable = 1	 Coin = 1	 Time Remaining = 1:44	
# Time: 170 ns	 Clk = 0	 nReset = 1	 Enable = 1	 Coin = 1	 Time Remaining = 1:44	
# Time: 175 ns	 Clk = 1	 nReset = 1	 Enable = 1	 Coin = 1	 Time Remaining = 1:43	
# Time: 180 ns	 Clk = 0	 nReset = 1	 Enable = 1	 Coin = 1	 Time Remaining = 1:43	
# Time: 185 ns	 Clk = 1	 nReset = 1	 Enable = 1	 Coin = 1	 Time Remaining = 1:42	
# Time: 190 ns	 Clk = 0	 nReset = 1	 Enable = 1	 Coin = 1	 Time Remaining = 1:42	
# Time: 195 ns	 Clk = 1	 nReset = 1	 Enable = 1	 Coin = 1	 Time Remaining = 1:41	
# Time: 200 ns	 Clk = 0	 nReset = 1	 Enable = 1	 Coin = 1	 Time Remaining = 1:41	
# Time: 205 ns	 Clk = 1	 nReset = 1	 Enable = 1	 Coin = 1	 Time Remaining = 1:40	
# Time: 210 ns	 Clk = 0	 nReset = 1	 Enable = 1	 Coin = 1	 Time Remaining = 1:40	
# Time: 215 ns	 Clk = 1	 nReset = 1	 Enable = 1	 Coin = 1	 Time Remaining = 1:39	
# Time: 220 ns	 Clk = 0	 nReset = 1	 Enable = 1	 Coin = 1	 Time Remaining = 1:39	
# Time: 225 ns	 Clk = 1	 nReset = 1	 Enable = 1	 Coin = 1	 Time Remaining = 1:38	
# Time: 230 ns	 Clk = 0	 nReset = 1	 Enable = 1	 Coin = 1	 Time Remaining = 1:38	
# Time: 235 ns	 Clk = 1	 nReset = 1	 Enable = 1	 Coin = 1	 Time Remaining = 1:37	
# Time: 240 ns	 Clk = 0	 nReset = 1	 Enable = 1	 Coin = 1	 Time Remaining = 1:37	
# Time: 245 ns	 Clk = 1	 nReset = 1	 Enable = 1	 Coin = 1	 Time Remaining = 1:36	
# Time: 250 ns	 Clk = 0	 nReset = 1	 Enable = 1	 Coin = 1	 Time Remaining = 1:36	
# Time: 255 ns	 Clk = 1	 nReset = 1	 Enable = 1	 Coin = 1	 Time Remaining = 1:35	
# Time: 260 ns	 Clk = 0	 nReset = 1	 Enable = 1	 Coin = 1	 Time Remaining = 1:35	
# Time: 265 ns	 Clk = 1	 nReset = 1	 Enable = 1	 Coin = 1	 Time Remaining = 1:34	
# Time: 270 ns	 Clk = 0	 nReset = 1	 Enable = 1	 Coin = 1	 Time Remaining = 1:34	
# Time: 275 ns	 Clk = 1	 nReset = 1	 Enable = 1	 Coin = 1	 Time Remaining = 1:33	
# Time: 280 ns	 Clk = 0	 nReset = 1	 Enable = 1	 Coin = 1	 Time Remaining = 1:33	
# Time: 285 ns	 Clk = 1	 nReset = 1	 Enable = 1	 Coin = 1	 Time Remaining = 1:32	
# Time: 290 ns	 Clk = 0	 nReset = 1	 Enable = 1	 Coin = 1	 Time Remaining = 1:32	
# Time: 295 ns	 Clk = 1	 nReset = 1	 Enable = 1	 Coin = 1	 Time Remaining = 1:31	
# Time: 300 ns	 Clk = 0	 nReset = 1	 Enable = 1	 Coin = 1	 Time Remaining = 1:31	
# Time: 305 ns	 Clk = 1	 nReset = 1	 Enable = 1	 Coin = 1	 Time Remaining = 1:30	
# Time: 310 ns	 Clk = 0	 nReset = 1	 Enable = 1	 Coin = 1	 Time Remaining = 1:30	
# Time: 315 ns	 Clk = 1	 nReset = 1	 Enable = 1	 Coin = 1	 Time Remaining = 1:29	
# Time: 320 ns	 Clk = 0	 nReset = 1	 Enable = 1	 Coin = 1	 Time Remaining = 1:29	
# Time: 325 ns	 Clk = 1	 nReset = 1	 Enable = 1	 Coin = 1	 Time Remaining = 1:28	
# Time: 330 ns	 Clk = 0	 nReset = 1	 Enable = 1	 Coin = 1	 Time Remaining = 1:28	
# Time: 335 ns	 Clk = 1	 nReset = 1	 Enable = 1	 Coin = 1	 Time Remaining = 1:27	
# Time: 340 ns	 Clk = 0	 nReset = 1	 Enable = 1	 Coin = 1	 Time Remaining = 1:27	
# Time: 345 ns	 Clk = 1	 nReset = 1	 Enable = 1	 Coin = 1	 Time Remaining = 1:26	
# Time: 350 ns	 Clk = 0	 nReset = 1	 Enable = 1	 Coin = 1	 Time Remaining = 1:26	
# Time: 355 ns	 Clk = 1	 nReset = 1	 Enable = 1	 Coin = 1	 Time Remaining = 1:25	
# Time: 360 ns	 Clk = 0	 nReset = 1	 Enable = 1	 Coin = 1	 Time Remaining = 1:25	
# Time: 365 ns	 Clk = 1	 nReset = 1	 Enable = 1	 Coin = 1	 Time Remaining = 1:24	
# Time: 370 ns	 Clk = 0	 nReset = 1	 Enable = 1	 Coin = 1	 Time Remaining = 1:24	
# Time: 375 ns	 Clk = 1	 nReset = 1	 Enable = 1	 Coin = 1	 Time Remaining = 1:23	
# Time: 380 ns	 Clk = 0	 nReset = 1	 Enable = 1	 Coin = 1	 Time Remaining = 1:23	
# Time: 385 ns	 Clk = 1	 nReset = 1	 Enable = 1	 Coin = 1	 Time Remaining = 1:22	
# Time: 390 ns	 Clk = 0	 nReset = 1	 Enable = 1	 Coin = 1	 Time Remaining = 1:22	
# Time: 395 ns	 Clk = 1	 nReset = 1	 Enable = 1	 Coin = 1	 Time Remaining = 1:21	
# Time: 400 ns	 Clk = 0	 nReset = 1	 Enable = 1	 Coin = 1	 Time Remaining = 1:21	
# Time: 405 ns	 Clk = 1	 nReset = 1	 Enable = 1	 Coin = 1	 Time Remaining = 1:20	
# Time: 410 ns	 Clk = 0	 nReset = 1	 Enable = 1	 Coin = 1	 Time Remaining = 1:20	
# Time: 415 ns	 Clk = 1	 nReset = 1	 Enable = 1	 Coin = 1	 Time Remaining = 1:19	
# Time: 420 ns	 Clk = 0	 nReset = 1	 Enable = 1	 Coin = 1	 Time Remaining = 1:19	
# Time: 425 ns	 Clk = 1	 nReset = 1	 Enable = 1	 Coin = 1	 Time Remaining = 1:18	
# Time: 430 ns	 Clk = 0	 nReset = 1	 Enable = 1	 Coin = 1	 Time Remaining = 1:18	
# Time: 435 ns	 Clk = 1	 nReset = 1	 Enable = 1	 Coin = 1	 Time Remaining = 1:17	
# Time: 440 ns	 Clk = 0	 nReset = 1	 Enable = 1	 Coin = 1	 Time Remaining = 1:17	
# Time: 445 ns	 Clk = 1	 nReset = 1	 Enable = 1	 Coin = 1	 Time Remaining = 1:16	
# Time: 450 ns	 Clk = 0	 nReset = 1	 Enable = 1	 Coin = 1	 Time Remaining = 1:16	
# Time: 455 ns	 Clk = 1	 nReset = 1	 Enable = 1	 Coin = 1	 Time Remaining = 1:15	
# Time: 460 ns	 Clk = 0	 nReset = 1	 Enable = 1	 Coin = 1	 Time Remaining = 1:15	
# Time: 465 ns	 Clk = 1	 nReset = 1	 Enable = 1	 Coin = 1	 Time Remaining = 1:14	
# Time: 470 ns	 Clk = 0	 nReset = 1	 Enable = 1	 Coin = 1	 Time Remaining = 1:14	
# Time: 475 ns	 Clk = 1	 nReset = 1	 Enable = 1	 Coin = 1	 Time Remaining = 1:13	
# Time: 480 ns	 Clk = 0	 nReset = 1	 Enable = 1	 Coin = 1	 Time Remaining = 1:13	
# Time: 485 ns	 Clk = 1	 nReset = 1	 Enable = 1	 Coin = 1	 Time Remaining = 1:12	
# Time: 490 ns	 Clk = 0	 nReset = 1	 Enable = 1	 Coin = 1	 Time Remaining = 1:12	
# Time: 495 ns	 Clk = 1	 nReset = 1	 Enable = 1	 Coin = 1	 Time Remaining = 1:11	
# Time: 500 ns	 Clk = 0	 nReset = 1	 Enable = 1	 Coin = 1	 Time Remaining = 1:11	
# Time: 505 ns	 Clk = 1	 nReset = 1	 Enable = 1	 Coin = 1	 Time Remaining = 1:10	
# 
# INSERTING COIN AGAIN at                  510 ns...
# 
# Time: 510 ns	 Clk = 0	 nReset = 1	 Enable = 1	 Coin = 1	 Time Remaining = 1:10	
# Time: 515 ns	 Clk = 1	 nReset = 1	 Enable = 1	 Coin = 1	 Time Remaining = 1:09	
# Time: 520 ns	 Clk = 0	 nReset = 1	 Enable = 1	 Coin = 1	 Time Remaining = 1:09	
# Time: 525 ns	 Clk = 1	 nReset = 1	 Enable = 1	 Coin = 1	 Time Remaining = 1:08	
# Time: 530 ns	 Clk = 0	 nReset = 1	 Enable = 1	 Coin = 1	 Time Remaining = 1:08	
# Time: 535 ns	 Clk = 1	 nReset = 1	 Enable = 1	 Coin = 1	 Time Remaining = 1:07	
# Time: 540 ns	 Clk = 0	 nReset = 1	 Enable = 1	 Coin = 1	 Time Remaining = 1:07	
# Time: 545 ns	 Clk = 1	 nReset = 1	 Enable = 1	 Coin = 1	 Time Remaining = 1:06	
# Time: 550 ns	 Clk = 0	 nReset = 1	 Enable = 1	 Coin = 1	 Time Remaining = 1:06	
# Time: 555 ns	 Clk = 1	 nReset = 1	 Enable = 1	 Coin = 1	 Time Remaining = 1:05	
# Time: 560 ns	 Clk = 0	 nReset = 1	 Enable = 1	 Coin = 1	 Time Remaining = 1:05	
# Time: 565 ns	 Clk = 1	 nReset = 1	 Enable = 1	 Coin = 1	 Time Remaining = 1:04	
# Time: 570 ns	 Clk = 0	 nReset = 1	 Enable = 1	 Coin = 1	 Time Remaining = 1:04	
# Time: 575 ns	 Clk = 1	 nReset = 1	 Enable = 1	 Coin = 1	 Time Remaining = 1:03	
# Time: 580 ns	 Clk = 0	 nReset = 1	 Enable = 1	 Coin = 1	 Time Remaining = 1:03	
# Time: 585 ns	 Clk = 1	 nReset = 1	 Enable = 1	 Coin = 1	 Time Remaining = 1:02	
# Time: 590 ns	 Clk = 0	 nReset = 1	 Enable = 1	 Coin = 1	 Time Remaining = 1:02	
# Time: 595 ns	 Clk = 1	 nReset = 1	 Enable = 1	 Coin = 1	 Time Remaining = 1:01	
# Time: 600 ns	 Clk = 0	 nReset = 1	 Enable = 1	 Coin = 1	 Time Remaining = 1:01	
# Time: 605 ns	 Clk = 1	 nReset = 1	 Enable = 1	 Coin = 1	 Time Remaining = 1:00	
# 
# REJECTED at                  610 ns...
# 
# Time: 610 ns	 Clk = 0	 nReset = 1	 Enable = 1	 Coin = 1	 Time Remaining = 1:00	
# Time: 615 ns	 Clk = 1	 nReset = 1	 Enable = 1	 Coin = 1	 Time Remaining = 0:59	
# Time: 620 ns	 Clk = 0	 nReset = 1	 Enable = 1	 Coin = 1	 Time Remaining = 0:59	
# Time: 625 ns	 Clk = 1	 nReset = 1	 Enable = 1	 Coin = 1	 Time Remaining = 0:58	
# Time: 630 ns	 Clk = 0	 nReset = 1	 Enable = 1	 Coin = 1	 Time Remaining = 0:58	
# Time: 635 ns	 Clk = 1	 nReset = 1	 Enable = 1	 Coin = 1	 Time Remaining = 0:57	
# Time: 640 ns	 Clk = 0	 nReset = 1	 Enable = 1	 Coin = 1	 Time Remaining = 0:57	
# Time: 645 ns	 Clk = 1	 nReset = 1	 Enable = 1	 Coin = 1	 Time Remaining = 0:56	
# Time: 650 ns	 Clk = 0	 nReset = 1	 Enable = 1	 Coin = 1	 Time Remaining = 0:56	
# Time: 655 ns	 Clk = 1	 nReset = 1	 Enable = 1	 Coin = 1	 Time Remaining = 0:55	
# Time: 660 ns	 Clk = 0	 nReset = 1	 Enable = 1	 Coin = 1	 Time Remaining = 0:55	
# Time: 665 ns	 Clk = 1	 nReset = 1	 Enable = 1	 Coin = 1	 Time Remaining = 0:54	
# Time: 670 ns	 Clk = 0	 nReset = 1	 Enable = 1	 Coin = 1	 Time Remaining = 0:54	
# Time: 675 ns	 Clk = 1	 nReset = 1	 Enable = 1	 Coin = 1	 Time Remaining = 0:53	
# Time: 680 ns	 Clk = 0	 nReset = 1	 Enable = 1	 Coin = 1	 Time Remaining = 0:53	
# Time: 685 ns	 Clk = 1	 nReset = 1	 Enable = 1	 Coin = 1	 Time Remaining = 0:52	
# Time: 690 ns	 Clk = 0	 nReset = 1	 Enable = 1	 Coin = 1	 Time Remaining = 0:52	
# Time: 695 ns	 Clk = 1	 nReset = 1	 Enable = 1	 Coin = 1	 Time Remaining = 0:51	
# Time: 700 ns	 Clk = 0	 nReset = 1	 Enable = 1	 Coin = 1	 Time Remaining = 0:51	
# Time: 705 ns	 Clk = 1	 nReset = 1	 Enable = 1	 Coin = 1	 Time Remaining = 0:50	
# Time: 710 ns	 Clk = 0	 nReset = 1	 Enable = 1	 Coin = 1	 Time Remaining = 0:50	
# Time: 715 ns	 Clk = 1	 nReset = 1	 Enable = 1	 Coin = 1	 Time Remaining = 0:49	
# Time: 720 ns	 Clk = 0	 nReset = 1	 Enable = 1	 Coin = 1	 Time Remaining = 0:49	
# Time: 725 ns	 Clk = 1	 nReset = 1	 Enable = 1	 Coin = 1	 Time Remaining = 0:48	
# Time: 730 ns	 Clk = 0	 nReset = 1	 Enable = 1	 Coin = 1	 Time Remaining = 0:48	
# Time: 735 ns	 Clk = 1	 nReset = 1	 Enable = 1	 Coin = 1	 Time Remaining = 0:47	
# Time: 740 ns	 Clk = 0	 nReset = 1	 Enable = 1	 Coin = 1	 Time Remaining = 0:47	
# Time: 745 ns	 Clk = 1	 nReset = 1	 Enable = 1	 Coin = 1	 Time Remaining = 0:46	
# Time: 750 ns	 Clk = 0	 nReset = 1	 Enable = 1	 Coin = 1	 Time Remaining = 0:46	
# Time: 755 ns	 Clk = 1	 nReset = 1	 Enable = 1	 Coin = 1	 Time Remaining = 0:45	
# Time: 760 ns	 Clk = 0	 nReset = 1	 Enable = 1	 Coin = 1	 Time Remaining = 0:45	
# Time: 765 ns	 Clk = 1	 nReset = 1	 Enable = 1	 Coin = 1	 Time Remaining = 0:44	
# Time: 770 ns	 Clk = 0	 nReset = 1	 Enable = 1	 Coin = 1	 Time Remaining = 0:44	
# Time: 775 ns	 Clk = 1	 nReset = 1	 Enable = 1	 Coin = 1	 Time Remaining = 0:43	
# Time: 780 ns	 Clk = 0	 nReset = 1	 Enable = 1	 Coin = 1	 Time Remaining = 0:43	
# Time: 785 ns	 Clk = 1	 nReset = 1	 Enable = 1	 Coin = 1	 Time Remaining = 0:42	
# Time: 790 ns	 Clk = 0	 nReset = 1	 Enable = 1	 Coin = 1	 Time Remaining = 0:42	
# Time: 795 ns	 Clk = 1	 nReset = 1	 Enable = 1	 Coin = 1	 Time Remaining = 0:41	
# Time: 800 ns	 Clk = 0	 nReset = 1	 Enable = 1	 Coin = 1	 Time Remaining = 0:41	
# Time: 805 ns	 Clk = 1	 nReset = 1	 Enable = 1	 Coin = 1	 Time Remaining = 0:40	
# Time: 810 ns	 Clk = 0	 nReset = 1	 Enable = 1	 Coin = 1	 Time Remaining = 0:40	
# Time: 815 ns	 Clk = 1	 nReset = 1	 Enable = 1	 Coin = 1	 Time Remaining = 0:39	
# Time: 820 ns	 Clk = 0	 nReset = 1	 Enable = 1	 Coin = 1	 Time Remaining = 0:39	
# Time: 825 ns	 Clk = 1	 nReset = 1	 Enable = 1	 Coin = 1	 Time Remaining = 0:38	
# Time: 830 ns	 Clk = 0	 nReset = 1	 Enable = 1	 Coin = 1	 Time Remaining = 0:38	
# Time: 835 ns	 Clk = 1	 nReset = 1	 Enable = 1	 Coin = 1	 Time Remaining = 0:37	
# Time: 840 ns	 Clk = 0	 nReset = 1	 Enable = 1	 Coin = 1	 Time Remaining = 0:37	
# Time: 845 ns	 Clk = 1	 nReset = 1	 Enable = 1	 Coin = 1	 Time Remaining = 0:36	
# Time: 850 ns	 Clk = 0	 nReset = 1	 Enable = 1	 Coin = 1	 Time Remaining = 0:36	
# Time: 855 ns	 Clk = 1	 nReset = 1	 Enable = 1	 Coin = 1	 Time Remaining = 0:35	
# Time: 860 ns	 Clk = 0	 nReset = 1	 Enable = 1	 Coin = 1	 Time Remaining = 0:35	
# Time: 865 ns	 Clk = 1	 nReset = 1	 Enable = 1	 Coin = 1	 Time Remaining = 0:34	
# Time: 870 ns	 Clk = 0	 nReset = 1	 Enable = 1	 Coin = 1	 Time Remaining = 0:34	
# Time: 875 ns	 Clk = 1	 nReset = 1	 Enable = 1	 Coin = 1	 Time Remaining = 0:33	
# Time: 880 ns	 Clk = 0	 nReset = 1	 Enable = 1	 Coin = 1	 Time Remaining = 0:33	
# Time: 885 ns	 Clk = 1	 nReset = 1	 Enable = 1	 Coin = 1	 Time Remaining = 0:32	
# Time: 890 ns	 Clk = 0	 nReset = 1	 Enable = 1	 Coin = 1	 Time Remaining = 0:32	
# Time: 895 ns	 Clk = 1	 nReset = 1	 Enable = 1	 Coin = 1	 Time Remaining = 0:31	
# Time: 900 ns	 Clk = 0	 nReset = 1	 Enable = 1	 Coin = 1	 Time Remaining = 0:31	
# Time: 905 ns	 Clk = 1	 nReset = 1	 Enable = 1	 Coin = 1	 Time Remaining = 0:30	
# Time: 910 ns	 Clk = 0	 nReset = 1	 Enable = 1	 Coin = 1	 Time Remaining = 0:30	
# Time: 915 ns	 Clk = 1	 nReset = 1	 Enable = 1	 Coin = 1	 Time Remaining = 0:29	
# Time: 920 ns	 Clk = 0	 nReset = 1	 Enable = 1	 Coin = 1	 Time Remaining = 0:29	
# Time: 925 ns	 Clk = 1	 nReset = 1	 Enable = 1	 Coin = 1	 Time Remaining = 0:28	
# Time: 930 ns	 Clk = 0	 nReset = 1	 Enable = 1	 Coin = 1	 Time Remaining = 0:28	
# Time: 935 ns	 Clk = 1	 nReset = 1	 Enable = 1	 Coin = 1	 Time Remaining = 0:27	
# Time: 940 ns	 Clk = 0	 nReset = 1	 Enable = 1	 Coin = 1	 Time Remaining = 0:27	
# Time: 945 ns	 Clk = 1	 nReset = 1	 Enable = 1	 Coin = 1	 Time Remaining = 0:26	
# Time: 950 ns	 Clk = 0	 nReset = 1	 Enable = 1	 Coin = 1	 Time Remaining = 0:26	
# Time: 955 ns	 Clk = 1	 nReset = 1	 Enable = 1	 Coin = 1	 Time Remaining = 0:25	
# Time: 960 ns	 Clk = 0	 nReset = 1	 Enable = 1	 Coin = 1	 Time Remaining = 0:25	
# Time: 965 ns	 Clk = 1	 nReset = 1	 Enable = 1	 Coin = 1	 Time Remaining = 0:24	
# Time: 970 ns	 Clk = 0	 nReset = 1	 Enable = 1	 Coin = 1	 Time Remaining = 0:24	
# Time: 975 ns	 Clk = 1	 nReset = 1	 Enable = 1	 Coin = 1	 Time Remaining = 0:23	
# Time: 980 ns	 Clk = 0	 nReset = 1	 Enable = 1	 Coin = 1	 Time Remaining = 0:23	
# Time: 985 ns	 Clk = 1	 nReset = 1	 Enable = 1	 Coin = 1	 Time Remaining = 0:22	
# Time: 990 ns	 Clk = 0	 nReset = 1	 Enable = 1	 Coin = 1	 Time Remaining = 0:22	
# Time: 995 ns	 Clk = 1	 nReset = 1	 Enable = 1	 Coin = 1	 Time Remaining = 0:21	
# Time: 1000 ns	 Clk = 0	 nReset = 1	 Enable = 1	 Coin = 1	 Time Remaining = 0:21	
# Time: 1005 ns	 Clk = 1	 nReset = 1	 Enable = 1	 Coin = 1	 Time Remaining = 0:20	
# Time: 1010 ns	 Clk = 0	 nReset = 1	 Enable = 1	 Coin = 1	 Time Remaining = 0:20	
# Time: 1015 ns	 Clk = 1	 nReset = 1	 Enable = 1	 Coin = 1	 Time Remaining = 0:19	
# Time: 1020 ns	 Clk = 0	 nReset = 1	 Enable = 1	 Coin = 1	 Time Remaining = 0:19	
# Time: 1025 ns	 Clk = 1	 nReset = 1	 Enable = 1	 Coin = 1	 Time Remaining = 0:18	
# Time: 1030 ns	 Clk = 0	 nReset = 1	 Enable = 1	 Coin = 1	 Time Remaining = 0:18	
# Time: 1035 ns	 Clk = 1	 nReset = 1	 Enable = 1	 Coin = 1	 Time Remaining = 0:17	
# Time: 1040 ns	 Clk = 0	 nReset = 1	 Enable = 1	 Coin = 1	 Time Remaining = 0:17	
# Time: 1045 ns	 Clk = 1	 nReset = 1	 Enable = 1	 Coin = 1	 Time Remaining = 0:16	
